<?xml version="1.0" encoding="utf-8"?>
<!-- Generator: Adobe Illustrator 21.0.2, SVG Export Plug-In . SVG Version: 6.00 Build 0)  -->
<svg version="1.1" id="Слой_1" xmlns="http://www.w3.org/2000/svg" xmlns:xlink="http://www.w3.org/1999/xlink" x="0px" y="0px"
	 viewBox="0 12 151 125" style="enable-background:new 0 0 151 125;" xml:space="preserve">
<style type="text/css">
	.st0{fill:none;stroke:#E74C1E;stroke-linejoin:round;stroke-miterlimit:10;}
	.st1{fill:#E74C1E;stroke:#E74C1E;stroke-linejoin:round;stroke-miterlimit:10;}
</style>
<g id="XMLID_192_">
	<path id="XMLID_445_" class="st0" d="M11.8,25.7L1,35.8v53.4h95.9V25.7H11.8z M10.5,56.1c-3.1,0-5.5-2.5-5.5-5.6
		c0-3.1,2.5-5.5,5.5-5.5s5.5,2.5,5.5,5.5C16.1,53.6,13.6,56.1,10.5,56.1z M61.1,84.5H45.6V74.3h15.5V84.5z M55.1,40.3
		c-3.1,0-5.5-2.5-5.5-5.5c0-3.1,2.5-5.5,5.5-5.5c3.1,0,5.5,2.5,5.5,5.5C60.6,37.8,58.1,40.3,55.1,40.3z M92.2,84.5H68.6V60.8h23.6
		V84.5z"/>
	<polygon id="XMLID_127_" class="st1" points="13.3,99.3 1,99.3 1,89.2 10.9,89.2 	"/>
	<path id="XMLID_158_" class="st1" d="M11.7,25.7L1,35.8v53.9l9.5-0.3v-7.7l23.6-6.5v-18l12.3-11.8h24.3l5.3-8.5V25.7L11.7,25.7z
		 M10.5,56.1c-3.1,0-5.5-2.5-5.5-5.6c0-3.1,2.5-5.5,5.5-5.5s5.5,2.5,5.5,5.5C16.1,53.6,13.6,56.1,10.5,56.1z M55.1,40.3
		c-3.1,0-5.5-2.5-5.5-5.5c0-3.1,2.5-5.5,5.5-5.5c3.1,0,5.5,2.5,5.5,5.5C60.6,37.8,58.1,40.3,55.1,40.3z"/>
	<rect id="XMLID_128_" x="96.9" y="25.7" class="st0" width="29.1" height="28.4"/>
	<rect id="XMLID_166_" x="101" y="29.7" class="st1" width="20.3" height="20.3"/>
	<rect id="XMLID_51_" x="68.6" y="60.8" class="st0" width="23.6" height="23.6"/>
	<rect id="XMLID_243_" x="45.6" y="74.3" class="st0" width="15.5" height="10.1"/>
	<g id="XMLID_191_">
		<circle id="XMLID_149_" class="st1" cx="48.2" cy="82" r="0.5"/>
		<circle id="XMLID_176_" class="st1" cx="50.2" cy="82" r="0.5"/>
		<circle id="XMLID_178_" class="st1" cx="52.1" cy="82" r="0.5"/>
		<circle id="XMLID_179_" class="st1" cx="54" cy="82" r="0.5"/>
		<circle id="XMLID_181_" class="st1" cx="55.9" cy="82" r="0.5"/>
		<circle id="XMLID_182_" class="st1" cx="57.9" cy="82" r="0.5"/>
		<circle id="XMLID_184_" class="st1" cx="48.2" cy="79.6" r="0.5"/>
		<circle id="XMLID_183_" class="st1" cx="50.2" cy="79.6" r="0.5"/>
		<circle id="XMLID_167_" class="st1" cx="52.1" cy="79.6" r="0.5"/>
		<circle id="XMLID_152_" class="st1" cx="54" cy="79.6" r="0.5"/>
		<circle id="XMLID_151_" class="st1" cx="55.9" cy="79.6" r="0.5"/>
		<circle id="XMLID_145_" class="st1" cx="57.9" cy="79.6" r="0.5"/>
		<circle id="XMLID_190_" class="st1" cx="48.2" cy="77.2" r="0.5"/>
		<circle id="XMLID_189_" class="st1" cx="50.2" cy="77.2" r="0.5"/>
		<circle id="XMLID_188_" class="st1" cx="52.1" cy="77.2" r="0.5"/>
		<circle id="XMLID_187_" class="st1" cx="54" cy="77.2" r="0.5"/>
		<circle id="XMLID_186_" class="st1" cx="55.9" cy="77.2" r="0.5"/>
		<circle id="XMLID_185_" class="st1" cx="57.9" cy="77.2" r="0.5"/>
	</g>
</g>
</svg>
