<?xml version="1.0" encoding="utf-8"?>
<!-- Generator: Adobe Illustrator 21.0.2, SVG Export Plug-In . SVG Version: 6.00 Build 0)  -->
<svg version="1.1" id="Layer_1" xmlns="http://www.w3.org/2000/svg" xmlns:xlink="http://www.w3.org/1999/xlink" x="0px" y="0px"
	 viewBox="0 -6 151 125" style="enable-background:new 0 0 151 125;" xml:space="preserve">
<style type="text/css">
	.st0{fill:#F84807;}
	.st1{fill:none;}
</style>
<g id="XMLID_367_">
	<path id="XMLID_370_" class="st0" d="M101,17c0.2,0,0.3,0,0.5,0v-1.2c-0.2,0-0.3,0-0.5,0c-1.7,0-3-1.4-3-3c0-0.1,0-0.3,0-0.4h-2.3
		c0,0.1,0,0.3,0,0.4c0,1.7-1.3,3-3,3c-1.7,0-3-1.4-3-3c0-0.1,0-0.3,0-0.4H87c0,0.1,0,0.3,0,0.4c0,1.7-1.3,3-3,3c-1.7,0-3-1.4-3-3
		c0-0.1,0-0.3,0-0.4h-2.8c0,0.1,0,0.3,0,0.4c0,1.7-1.3,3-3,3s-3-1.4-3-3c0-0.1,0-0.3,0-0.4h-2.8c0,0.1,0,0.3,0,0.4c0,1.7-1.3,3-3,3
		s-3-1.4-3-3c0-0.1,0-0.3,0-0.4h-2.8c0,0.1,0,0.3,0,0.4c0,1.7-1.3,3-3,3c-1.7,0-3-1.4-3-3c0-0.1,0-0.3,0-0.4h-2.8c0,0.1,0,0.3,0,0.4
		c0,1.7-1.3,3-3,3c-1.7,0-3-1.4-3-3c0-0.1,0-0.3,0-0.4h-2.8c0,0.1,0,0.3,0,0.4c0,1.7-1.3,3-3,3c-1.7,0-3-1.4-3-3c0-0.1,0-0.3,0-0.4
		h-2.8c0,0.1,0,0.3,0,0.4c0,1.7-1.3,3-3,3s-3-1.4-3-3c0-0.1,0-0.3,0-0.4H26c0,0.1,0,0.3,0,0.4c0,1.7-1.3,3-3,3c-1.7,0-3-1.4-3-3
		c0-0.1,0-0.3,0-0.4h-2.6c0,0.1,0,0.3,0,0.4c0,1.3-0.8,2.3-1.9,2.8v1.6c1.1,0.4,1.9,1.5,1.9,2.8c0,1.3-0.8,2.3-1.9,2.8v1.6
		c1.1,0.5,1.9,1.5,1.9,2.8c0,1.3-0.8,2.3-1.9,2.8v1.6c1.1,0.5,1.9,1.5,1.9,2.8c0,1.3-0.8,2.3-1.9,2.8v1.6c1.1,0.5,1.9,1.5,1.9,2.8
		c0,1.3-0.8,2.3-1.9,2.8V46c1.1,0.5,1.9,1.5,1.9,2.8c0,1.3-0.8,2.3-1.9,2.8v1.6c0.5,0.2,0.9,0.5,1.2,1c1.6-1,3.2-1.9,4.9-2.6
		c-1-0.5-1.8-1.5-1.8-2.7c0-1.7,1.3-3,3-3c1.7,0,3,1.4,3,3c0,0.5-0.1,1-0.4,1.5c1-0.3,2.1-0.5,3.2-0.7c-0.1-0.3-0.1-0.5-0.1-0.8
		c0-1.7,1.3-3,3-3s3,1.4,3,3c0,0.2,0,0.3,0,0.5c1,0,1.9,0.1,2.9,0.3c-0.1-0.2-0.1-0.5-0.1-0.8c0-1.7,1.3-3,3-3c1.7,0,3,1.4,3,3
		c0,0.7-0.3,1.4-0.7,1.9c1.9,0.6,3.7,1.4,5.5,2.4c0.3-0.1,0.6-0.2,0.9-0.2c1.6,0,2.9,1.2,3,2.8c1.7,1.4,3.3,2.9,4.7,4.6
		c0.3-0.1,0.6-0.2,1-0.2c1.7,0,3,1.3,3,3c0,0.7-0.3,1.4-0.7,1.9c1.9,3.4,3.2,7.2,3.6,11.2c0.5-1.1,1.5-1.8,2.8-1.8c1.7,0,3,1.4,3,3
		c0,1.7-1.3,3-3,3c-1.1,0-2-0.6-2.6-1.4c0,0.3,0,0.7,0,1c0,1.1-0.1,2.2-0.2,3.2c0.5-1,1.5-1.7,2.7-1.7c1.7,0,3,1.4,3,3s-1.3,3-3,3
		c-1.5,0-2.7-1.1-2.9-2.5c-0.7,4.1-2.1,7.8-4.2,11.2c0.7,0.4,1.2,1.1,1.4,1.9h2.9c0.3-1.3,1.5-2.3,2.9-2.3c1.4,0,2.6,1,2.9,2.3h2.9
		c0.3-1.3,1.5-2.3,2.9-2.3c1.4,0,2.6,1,2.9,2.3h2.9c0.3-1.3,1.5-2.3,2.9-2.3c1.4,0,2.6,1,2.9,2.3h2.9c0.3-1.3,1.5-2.3,2.9-2.3
		c1.4,0,2.6,1,2.9,2.3h2.4c0.3-1.3,1.5-2.3,2.9-2.3c0.2,0,0.3,0,0.5,0v-1.2c-0.2,0-0.3,0-0.5,0c-1.7,0-3-1.4-3-3c0-1.7,1.3-3,3-3
		c0.2,0,0.3,0,0.5,0v-1.2c-0.2,0-0.3,0-0.5,0c-1.7,0-3-1.4-3-3s1.3-3,3-3c0.2,0,0.3,0,0.5,0v-1.2c-0.2,0-0.3,0-0.5,0
		c-1.7,0-3-1.4-3-3c0-1.7,1.3-3,3-3c0.2,0,0.3,0,0.5,0v-1.2c-0.2,0-0.3,0-0.5,0c-1.7,0-3-1.4-3-3c0-1.7,1.3-3,3-3c0.2,0,0.3,0,0.5,0
		v-1.2c-0.2,0-0.3,0-0.5,0c-1.7,0-3-1.3-3-3c0-1.7,1.3-3,3-3c0.2,0,0.3,0,0.5,0v-1.2c-0.2,0-0.3,0-0.5,0c-1.7,0-3-1.4-3-3
		c0-1.7,1.3-3,3-3c0.2,0,0.3,0,0.5,0v-1.2c-0.2,0-0.3,0-0.5,0c-1.7,0-3-1.4-3-3c0-1.7,1.3-3,3-3c0.2,0,0.3,0,0.5,0v-1.2
		c-0.2,0-0.3,0-0.5,0c-1.7,0-3-1.4-3-3c0-1.7,1.3-3,3-3c0.2,0,0.3,0,0.5,0v-1.2c-0.2,0-0.3,0-0.5,0c-1.7,0-3-1.4-3-3
		c0-1.7,1.3-3,3-3c0.2,0,0.3,0,0.5,0v-1.2c-0.2,0-0.3,0-0.5,0c-1.7,0-3-1.3-3-3c0-1.7,1.3-3,3-3c0.2,0,0.3,0,0.5,0V23
		c-0.2,0-0.3,0-0.5,0c-1.7,0-3-1.4-3-3C98,18.4,99.3,17,101,17z M23.1,44.6c-1.7,0-3-1.4-3-3c0-1.7,1.3-3,3-3c1.7,0,3,1.4,3,3
		C26.1,43.2,24.7,44.6,23.1,44.6z M23.1,37.4c-1.7,0-3-1.4-3-3c0-1.7,1.3-3,3-3c1.7,0,3,1.4,3,3C26.1,36.1,24.7,37.4,23.1,37.4z
		 M23.1,30.2c-1.7,0-3-1.3-3-3c0-1.7,1.3-3,3-3c1.7,0,3,1.3,3,3C26.1,28.9,24.7,30.2,23.1,30.2z M23.1,23.1c-1.7,0-3-1.4-3-3
		c0-1.7,1.3-3,3-3c1.7,0,3,1.3,3,3C26.1,21.7,24.7,23.1,23.1,23.1z M31.8,44.6c-1.7,0-3-1.4-3-3c0-1.7,1.3-3,3-3s3,1.4,3,3
		C34.8,43.2,33.4,44.6,31.8,44.6z M31.8,37.4c-1.7,0-3-1.4-3-3c0-1.7,1.3-3,3-3s3,1.4,3,3C34.8,36.1,33.4,37.4,31.8,37.4z
		 M31.8,30.2c-1.7,0-3-1.3-3-3c0-1.7,1.3-3,3-3s3,1.3,3,3C34.8,28.9,33.4,30.2,31.8,30.2z M31.8,23.1c-1.7,0-3-1.4-3-3
		c0-1.7,1.3-3,3-3s3,1.3,3,3C34.8,21.7,33.4,23.1,31.8,23.1z M40.5,44.6c-1.7,0-3-1.4-3-3c0-1.7,1.3-3,3-3c1.7,0,3,1.4,3,3
		C43.5,43.2,42.1,44.6,40.5,44.6z M40.5,37.4c-1.7,0-3-1.4-3-3c0-1.7,1.3-3,3-3c1.7,0,3,1.4,3,3C43.5,36.1,42.1,37.4,40.5,37.4z
		 M40.5,30.2c-1.7,0-3-1.3-3-3c0-1.7,1.3-3,3-3c1.7,0,3,1.3,3,3C43.5,28.9,42.1,30.2,40.5,30.2z M40.5,23.1c-1.7,0-3-1.4-3-3
		c0-1.7,1.3-3,3-3c1.7,0,3,1.3,3,3C43.5,21.7,42.1,23.1,40.5,23.1z M49.2,51.8c-1.7,0-3-1.4-3-3c0-1.7,1.3-3,3-3c1.7,0,3,1.4,3,3
		C52.2,50.4,50.9,51.8,49.2,51.8z M49.2,44.6c-1.7,0-3-1.4-3-3c0-1.7,1.3-3,3-3c1.7,0,3,1.4,3,3C52.2,43.2,50.9,44.6,49.2,44.6z
		 M49.2,37.4c-1.7,0-3-1.4-3-3c0-1.7,1.3-3,3-3c1.7,0,3,1.4,3,3C52.2,36.1,50.9,37.4,49.2,37.4z M49.2,30.2c-1.7,0-3-1.3-3-3
		c0-1.7,1.3-3,3-3c1.7,0,3,1.3,3,3C52.2,28.9,50.9,30.2,49.2,30.2z M49.2,23.1c-1.7,0-3-1.4-3-3c0-1.7,1.3-3,3-3c1.7,0,3,1.3,3,3
		C52.2,21.7,50.9,23.1,49.2,23.1z M57.9,58.9c-1.7,0-3-1.4-3-3c0-1.7,1.3-3,3-3c1.7,0,3,1.3,3,3C60.9,57.6,59.6,58.9,57.9,58.9z
		 M57.9,51.8c-1.7,0-3-1.4-3-3c0-1.7,1.3-3,3-3c1.7,0,3,1.4,3,3C60.9,50.4,59.6,51.8,57.9,51.8z M57.9,44.6c-1.7,0-3-1.4-3-3
		c0-1.7,1.3-3,3-3c1.7,0,3,1.4,3,3C60.9,43.2,59.6,44.6,57.9,44.6z M57.9,37.4c-1.7,0-3-1.4-3-3c0-1.7,1.3-3,3-3c1.7,0,3,1.4,3,3
		C60.9,36.1,59.6,37.4,57.9,37.4z M57.9,30.2c-1.7,0-3-1.3-3-3c0-1.7,1.3-3,3-3c1.7,0,3,1.3,3,3C60.9,28.9,59.6,30.2,57.9,30.2z
		 M57.9,23.1c-1.7,0-3-1.4-3-3c0-1.7,1.3-3,3-3c1.7,0,3,1.3,3,3C60.9,21.7,59.6,23.1,57.9,23.1z M66.6,94.8c-1.7,0-3-1.4-3-3
		c0-1.7,1.3-3,3-3s3,1.3,3,3C69.6,93.4,68.3,94.8,66.6,94.8z M66.6,73.3c-1.7,0-3-1.4-3-3c0-1.7,1.3-3,3-3s3,1.4,3,3
		C69.6,71.9,68.3,73.3,66.6,73.3z M66.6,66.1c-1.7,0-3-1.3-3-3c0-1.7,1.3-3,3-3s3,1.3,3,3C69.6,64.8,68.3,66.1,66.6,66.1z
		 M66.6,58.9c-1.7,0-3-1.4-3-3c0-1.7,1.3-3,3-3s3,1.3,3,3C69.6,57.6,68.3,58.9,66.6,58.9z M66.6,51.8c-1.7,0-3-1.4-3-3
		c0-1.7,1.3-3,3-3s3,1.4,3,3C69.6,50.4,68.3,51.8,66.6,51.8z M66.6,44.6c-1.7,0-3-1.4-3-3c0-1.7,1.3-3,3-3s3,1.4,3,3
		C69.6,43.2,68.3,44.6,66.6,44.6z M66.6,37.4c-1.7,0-3-1.4-3-3c0-1.7,1.3-3,3-3s3,1.4,3,3C69.6,36.1,68.3,37.4,66.6,37.4z
		 M66.6,30.2c-1.7,0-3-1.3-3-3c0-1.7,1.3-3,3-3s3,1.3,3,3C69.6,28.9,68.3,30.2,66.6,30.2z M66.6,23.1c-1.7,0-3-1.4-3-3
		c0-1.7,1.3-3,3-3s3,1.3,3,3C69.6,21.7,68.3,23.1,66.6,23.1z M75.4,94.8c-1.7,0-3-1.4-3-3c0-1.7,1.3-3,3-3s3,1.3,3,3
		C78.4,93.4,77,94.8,75.4,94.8z M75.4,87.6c-1.7,0-3-1.4-3-3s1.3-3,3-3s3,1.4,3,3S77,87.6,75.4,87.6z M75.4,80.4c-1.7,0-3-1.4-3-3
		c0-1.7,1.3-3,3-3s3,1.4,3,3C78.4,79.1,77,80.4,75.4,80.4z M75.4,73.3c-1.7,0-3-1.4-3-3c0-1.7,1.3-3,3-3s3,1.4,3,3
		C78.4,71.9,77,73.3,75.4,73.3z M75.4,66.1c-1.7,0-3-1.3-3-3c0-1.7,1.3-3,3-3s3,1.3,3,3C78.4,64.8,77,66.1,75.4,66.1z M75.4,58.9
		c-1.7,0-3-1.4-3-3c0-1.7,1.3-3,3-3s3,1.3,3,3C78.4,57.6,77,58.9,75.4,58.9z M75.4,51.8c-1.7,0-3-1.4-3-3c0-1.7,1.3-3,3-3s3,1.4,3,3
		C78.4,50.4,77,51.8,75.4,51.8z M75.4,44.6c-1.7,0-3-1.4-3-3c0-1.7,1.3-3,3-3s3,1.4,3,3C78.4,43.2,77,44.6,75.4,44.6z M75.4,37.4
		c-1.7,0-3-1.4-3-3c0-1.7,1.3-3,3-3s3,1.4,3,3C78.4,36.1,77,37.4,75.4,37.4z M75.4,30.2c-1.7,0-3-1.3-3-3c0-1.7,1.3-3,3-3s3,1.3,3,3
		C78.4,28.9,77,30.2,75.4,30.2z M75.4,23.1c-1.7,0-3-1.4-3-3c0-1.7,1.3-3,3-3s3,1.3,3,3C78.4,21.7,77,23.1,75.4,23.1z M84.1,94.8
		c-1.7,0-3-1.4-3-3c0-1.7,1.3-3,3-3c1.7,0,3,1.3,3,3C87.1,93.4,85.7,94.8,84.1,94.8z M84.1,87.6c-1.7,0-3-1.4-3-3s1.3-3,3-3
		c1.7,0,3,1.4,3,3S85.7,87.6,84.1,87.6z M84.1,80.4c-1.7,0-3-1.4-3-3c0-1.7,1.3-3,3-3c1.7,0,3,1.4,3,3
		C87.1,79.1,85.7,80.4,84.1,80.4z M84.1,73.3c-1.7,0-3-1.4-3-3c0-1.7,1.3-3,3-3c1.7,0,3,1.4,3,3C87.1,71.9,85.7,73.3,84.1,73.3z
		 M84.1,66.1c-1.7,0-3-1.3-3-3c0-1.7,1.3-3,3-3c1.7,0,3,1.3,3,3C87.1,64.8,85.7,66.1,84.1,66.1z M84.1,58.9c-1.7,0-3-1.4-3-3
		c0-1.7,1.3-3,3-3c1.7,0,3,1.3,3,3C87.1,57.6,85.7,58.9,84.1,58.9z M84.1,51.8c-1.7,0-3-1.4-3-3c0-1.7,1.3-3,3-3c1.7,0,3,1.4,3,3
		C87.1,50.4,85.7,51.8,84.1,51.8z M84.1,44.6c-1.7,0-3-1.4-3-3c0-1.7,1.3-3,3-3c1.7,0,3,1.4,3,3C87.1,43.2,85.7,44.6,84.1,44.6z
		 M84.1,37.4c-1.7,0-3-1.4-3-3c0-1.7,1.3-3,3-3c1.7,0,3,1.4,3,3C87.1,36.1,85.7,37.4,84.1,37.4z M84.1,30.2c-1.7,0-3-1.3-3-3
		c0-1.7,1.3-3,3-3c1.7,0,3,1.3,3,3C87.1,28.9,85.7,30.2,84.1,30.2z M84.1,23.1c-1.7,0-3-1.4-3-3c0-1.7,1.3-3,3-3c1.7,0,3,1.3,3,3
		C87.1,21.7,85.7,23.1,84.1,23.1z M92.8,94.8c-1.7,0-3-1.4-3-3c0-1.7,1.3-3,3-3c1.7,0,3,1.3,3,3C95.8,93.4,94.4,94.8,92.8,94.8z
		 M92.8,87.6c-1.7,0-3-1.4-3-3s1.3-3,3-3c1.7,0,3,1.4,3,3S94.4,87.6,92.8,87.6z M92.8,80.4c-1.7,0-3-1.4-3-3c0-1.7,1.3-3,3-3
		c1.7,0,3,1.4,3,3C95.8,79.1,94.4,80.4,92.8,80.4z M92.8,73.3c-1.7,0-3-1.4-3-3c0-1.7,1.3-3,3-3c1.7,0,3,1.4,3,3
		C95.8,71.9,94.4,73.3,92.8,73.3z M92.8,66.1c-1.7,0-3-1.3-3-3c0-1.7,1.3-3,3-3c1.7,0,3,1.3,3,3C95.8,64.8,94.4,66.1,92.8,66.1z
		 M92.8,58.9c-1.7,0-3-1.4-3-3c0-1.7,1.3-3,3-3c1.7,0,3,1.3,3,3C95.8,57.6,94.4,58.9,92.8,58.9z M92.8,51.8c-1.7,0-3-1.4-3-3
		c0-1.7,1.3-3,3-3c1.7,0,3,1.4,3,3C95.8,50.4,94.4,51.8,92.8,51.8z M92.8,44.6c-1.7,0-3-1.4-3-3c0-1.7,1.3-3,3-3c1.7,0,3,1.4,3,3
		C95.8,43.2,94.4,44.6,92.8,44.6z M92.8,37.4c-1.7,0-3-1.4-3-3c0-1.7,1.3-3,3-3c1.7,0,3,1.4,3,3C95.8,36.1,94.4,37.4,92.8,37.4z
		 M92.8,30.2c-1.7,0-3-1.3-3-3c0-1.7,1.3-3,3-3c1.7,0,3,1.3,3,3C95.8,28.9,94.4,30.2,92.8,30.2z M92.8,23.1c-1.7,0-3-1.4-3-3
		c0-1.7,1.3-3,3-3c1.7,0,3,1.3,3,3C95.8,21.7,94.4,23.1,92.8,23.1z"/>
	<path id="XMLID_437_" class="st0" d="M54.9,99.3h-2.8c-0.2,1.5-1.4,2.7-3,2.7s-2.8-1.2-3-2.7h-2.8c-0.2,1.5-1.4,2.7-3,2.7
		c-1.5,0-2.8-1.2-3-2.7h-2.7c-0.2,1.5-1.4,2.7-3,2.7c-1.5,0-2.8-1.2-3-2.7H26c-0.2,1.5-1.4,2.7-3,2.7c-1.5,0-2.8-1.2-3-2.7h-2.6
		c-0.2,1.5-1.4,2.7-3,2.7c-1.7,0-3-1.3-3-3c0-1.7,1.3-3,3-3c0.2,0,0.3,0,0.5,0v-1.2c-0.2,0-0.3,0-0.5,0c-1.7,0-3-1.4-3-3
		c0-1.7,1.3-3,3-3c0.2,0,0.3,0,0.5,0v-1.2c-0.2,0-0.3,0-0.5,0c-1.7,0-3-1.4-3-3s1.3-3,3-3c0.2,0,0.3,0,0.5,0v-1.2
		c-0.2,0-0.3,0-0.5,0c-1.7,0-3-1.4-3-3c0-1.7,1.3-3,3-3c0.2,0,0.3,0,0.5,0v-1.2c-0.2,0-0.3,0-0.5,0c-1.7,0-3-1.4-3-3
		c0-1.7,1.3-3,3-3c0.2,0,0.3,0,0.5,0v-1.2c-0.2,0-0.3,0-0.5,0c-1.7,0-3-1.3-3-3c0-1.7,1.3-3,3-3c0.2,0,0.3,0,0.5,0v-1.2
		c-0.2,0-0.3,0-0.5,0c-1.4,0-2.5-0.9-2.9-2.2c-1.2,1.2-2.4,2.4-3.4,3.8C9.1,61,9.6,62,9.6,63.1c0,1.7-1.3,3-3,3
		c-0.6,0-1.2-0.2-1.7-0.5C3.2,69.1,2,73,1.6,77.1c0,0.1,0,0.2,0,0.3c0,0.3,0,0.5-0.1,0.8c0,0.7-0.1,1.4-0.1,2c0,4.1,0.8,8,2.1,11.6
		v-0.1c0-1.7,1.3-3,3-3c1.7,0,3,1.3,3,3c0,1.7-1.3,3-3,3c-0.8,0-1.6-0.3-2.1-0.9c0.3,0.7,0.7,1.5,1.1,2.2c0.3-0.1,0.6-0.2,1-0.2
		c1.7,0,3,1.3,3,3c0,0.7-0.3,1.4-0.7,1.9c1,1.2,2.1,2.3,3.2,3.3c0.6-0.7,1.4-1.1,2.3-1.1c1.7,0,3,1.4,3,3c0,0.6-0.2,1.2-0.5,1.7
		c1.9,1.2,4,2.2,6.2,2.9c0.6,0,1.1,0.2,1.6,0.5c1.5,0.4,2.9,0.7,4.5,1c0.5-0.9,1.5-1.5,2.6-1.5c1.2,0,2.3,0.7,2.7,1.8
		c1.1,0,2.3-0.1,3.4-0.3c0.5-0.9,1.5-1.5,2.6-1.5c0.7,0,1.3,0.2,1.8,0.6c2.1-0.6,4.2-1.4,6.1-2.4c-1.1-0.5-1.8-1.5-1.8-2.8
		c0-1.7,1.3-3,3-3c1.7,0,3,1.4,3,3c0,0.1,0,0.1,0,0.2c1.8-1.3,3.4-2.8,4.9-4.4C56.1,101.7,55.1,100.6,54.9,99.3z M6.6,87.6
		c-1.7,0-3-1.4-3-3s1.3-3,3-3c1.7,0,3,1.4,3,3S8.3,87.6,6.6,87.6z M6.6,80.4c-1.7,0-3-1.4-3-3c0-1.7,1.3-3,3-3c1.7,0,3,1.4,3,3
		C9.6,79.1,8.3,80.4,6.6,80.4z M6.6,73.3c-1.7,0-3-1.4-3-3c0-1.7,1.3-3,3-3c1.7,0,3,1.4,3,3C9.6,71.9,8.3,73.3,6.6,73.3z
		 M23.1,109.1c-1.7,0-3-1.3-3-3c0-1.7,1.3-3,3-3c1.7,0,3,1.4,3,3C26.1,107.8,24.7,109.1,23.1,109.1z M31.8,109.1c-1.7,0-3-1.3-3-3
		c0-1.7,1.3-3,3-3s3,1.4,3,3C34.8,107.8,33.4,109.1,31.8,109.1z M40.5,109.1c-1.7,0-3-1.3-3-3c0-1.7,1.3-3,3-3c1.7,0,3,1.4,3,3
		C43.5,107.8,42.1,109.1,40.5,109.1z"/>
	<line id="XMLID_40_" class="st1" x1="34.8" y1="12.5" x2="28.8" y2="12.5"/>
	<path id="XMLID_452_" class="st0" d="M25.7,50.2c-1.3,0.3-2.6,0.8-3.9,1.3c0.4,0.2,0.8,0.3,1.2,0.3C24.2,51.8,25.2,51.1,25.7,50.2z
		"/>
	<path id="XMLID_453_" class="st0" d="M31.8,51.8c1.5,0,2.7-1.1,3-2.5c-0.4,0-0.9,0-1.3,0c-1.5,0-3.1,0.1-4.5,0.3
		C29.2,50.8,30.4,51.8,31.8,51.8z"/>
	<path id="XMLID_454_" class="st0" d="M40.5,51.8c0.9,0,1.8-0.4,2.3-1.1c-1.7-0.5-3.4-0.9-5.2-1.2C37.9,50.8,39.1,51.8,40.5,51.8z"
		/>
	<g id="XMLID_455_">
		<path class="st0" d="M23.1,53.9c1.1,0,2,0.9,2,2s-0.9,2-2,2c-1.1,0-2-0.9-2-2S22,53.9,23.1,53.9 M23.1,52.9c-1.7,0-3,1.4-3,3
			s1.3,3,3,3c1.7,0,3-1.4,3-3S24.7,52.9,23.1,52.9L23.1,52.9z"/>
	</g>
	<g id="XMLID_456_">
		<path class="st0" d="M31.8,53.9c1.1,0,2,0.9,2,2s-0.9,2-2,2c-1.1,0-2-0.9-2-2S30.7,53.9,31.8,53.9 M31.8,52.9c-1.7,0-3,1.4-3,3
			s1.3,3,3,3c1.7,0,3-1.4,3-3S33.4,52.9,31.8,52.9L31.8,52.9z"/>
	</g>
	<g id="XMLID_457_">
		<path class="st0" d="M40.5,53.9c1.1,0,2,0.9,2,2s-0.9,2-2,2s-2-0.9-2-2S39.4,53.9,40.5,53.9 M40.5,52.9c-1.7,0-3,1.4-3,3
			s1.3,3,3,3c1.7,0,3-1.4,3-3S42.2,52.9,40.5,52.9L40.5,52.9z"/>
	</g>
	<g id="XMLID_458_">
		<path class="st0" d="M48.2,54.2c1,0.6,2,1.3,3,2c-0.1,1-1,1.8-2,1.8c-1.1,0-2-0.9-2-2C47.2,55.2,47.6,54.5,48.2,54.2 M48.3,53.1
			c-1.2,0.4-2.1,1.5-2.1,2.9c0,1.7,1.3,3,3,3s3-1.4,3-3c0-0.1,0-0.2,0-0.3C51,54.7,49.6,53.8,48.3,53.1L48.3,53.1z"/>
	</g>
	<g id="XMLID_459_">
		<path class="st0" d="M23.1,61.1c1.1,0,2,0.9,2,2c0,1.1-0.9,2-2,2c-1.1,0-2-0.9-2-2C21.1,62,22,61.1,23.1,61.1 M23.1,60.1
			c-1.7,0-3,1.4-3,3c0,1.7,1.3,3,3,3c1.7,0,3-1.4,3-3C26.1,61.4,24.7,60.1,23.1,60.1L23.1,60.1z"/>
	</g>
	<g id="XMLID_460_">
		<path class="st0" d="M31.8,61.1c1.1,0,2,0.9,2,2c0,1.1-0.9,2-2,2c-1.1,0-2-0.9-2-2C29.8,62,30.7,61.1,31.8,61.1 M31.8,60.1
			c-1.7,0-3,1.4-3,3c0,1.7,1.3,3,3,3c1.7,0,3-1.4,3-3C34.8,61.4,33.4,60.1,31.8,60.1L31.8,60.1z"/>
	</g>
	<g id="XMLID_461_">
		<path class="st0" d="M40.5,61.1c1.1,0,2,0.9,2,2c0,1.1-0.9,2-2,2s-2-0.9-2-2C38.5,62,39.4,61.1,40.5,61.1 M40.5,60.1
			c-1.7,0-3,1.4-3,3c0,1.7,1.3,3,3,3c1.7,0,3-1.4,3-3C43.5,61.4,42.2,60.1,40.5,60.1L40.5,60.1z"/>
	</g>
	<g id="XMLID_462_">
		<path class="st0" d="M49.2,61.1c1.1,0,2,0.9,2,2c0,1.1-0.9,2-2,2s-2-0.9-2-2C47.2,62,48.1,61.1,49.2,61.1 M49.2,60.1
			c-1.7,0-3,1.4-3,3c0,1.7,1.3,3,3,3s3-1.4,3-3C52.2,61.4,50.9,60.1,49.2,60.1L49.2,60.1z"/>
	</g>
	<g id="XMLID_463_">
		<path class="st0" d="M56.7,61.5c0.8,1,1.6,2.2,2.3,3.3c-0.3,0.2-0.7,0.3-1,0.3c-1.1,0-2-0.9-2-2C55.9,62.5,56.2,61.9,56.7,61.5
			 M56.9,60.2c-1.2,0.4-2,1.5-2,2.8c0,1.7,1.3,3,3,3c0.9,0,1.8-0.4,2.3-1.1C59.3,63.3,58.2,61.7,56.9,60.2L56.9,60.2z"/>
	</g>
	<g id="XMLID_464_">
		<path class="st0" d="M23.1,68.2c1.1,0,2,0.9,2,2s-0.9,2-2,2c-1.1,0-2-0.9-2-2S22,68.2,23.1,68.2 M23.1,67.2c-1.7,0-3,1.4-3,3
			s1.3,3,3,3c1.7,0,3-1.4,3-3S24.7,67.2,23.1,67.2L23.1,67.2z"/>
	</g>
	<g id="XMLID_465_">
		<path class="st0" d="M31.8,68.2c1.1,0,2,0.9,2,2s-0.9,2-2,2c-1.1,0-2-0.9-2-2S30.7,68.2,31.8,68.2 M31.8,67.2c-1.7,0-3,1.4-3,3
			s1.3,3,3,3c1.7,0,3-1.4,3-3S33.4,67.2,31.8,67.2L31.8,67.2z"/>
	</g>
	<g id="XMLID_466_">
		<path class="st0" d="M40.5,68.2c1.1,0,2,0.9,2,2s-0.9,2-2,2s-2-0.9-2-2S39.4,68.2,40.5,68.2 M40.5,67.2c-1.7,0-3,1.4-3,3
			s1.3,3,3,3c1.7,0,3-1.4,3-3S42.2,67.2,40.5,67.2L40.5,67.2z"/>
	</g>
	<g id="XMLID_467_">
		<path class="st0" d="M49.2,68.2c1.1,0,2,0.9,2,2s-0.9,2-2,2s-2-0.9-2-2S48.1,68.2,49.2,68.2 M49.2,67.2c-1.7,0-3,1.4-3,3
			s1.3,3,3,3s3-1.4,3-3S50.9,67.2,49.2,67.2L49.2,67.2z"/>
	</g>
	<g id="XMLID_468_">
		<path class="st0" d="M57.9,68.2c1.1,0,2,0.9,2,2s-0.9,2-2,2s-2-0.9-2-2S56.8,68.2,57.9,68.2 M57.9,67.2c-1.7,0-3,1.4-3,3
			s1.3,3,3,3c1.7,0,3-1.4,3-3S59.6,67.2,57.9,67.2L57.9,67.2z"/>
	</g>
	<g id="XMLID_469_">
		<path class="st0" d="M23.1,75.4c1.1,0,2,0.9,2,2s-0.9,2-2,2c-1.1,0-2-0.9-2-2S22,75.4,23.1,75.4 M23.1,74.4c-1.7,0-3,1.4-3,3
			c0,1.7,1.3,3,3,3c1.7,0,3-1.4,3-3C26.1,75.8,24.7,74.4,23.1,74.4L23.1,74.4z"/>
	</g>
	<g id="XMLID_470_">
		<path class="st0" d="M31.8,75.4c1.1,0,2,0.9,2,2s-0.9,2-2,2c-1.1,0-2-0.9-2-2S30.7,75.4,31.8,75.4 M31.8,74.4c-1.7,0-3,1.4-3,3
			c0,1.7,1.3,3,3,3c1.7,0,3-1.4,3-3C34.8,75.8,33.4,74.4,31.8,74.4L31.8,74.4z"/>
	</g>
	<g id="XMLID_471_">
		<path class="st0" d="M40.5,75.4c1.1,0,2,0.9,2,2s-0.9,2-2,2s-2-0.9-2-2S39.4,75.4,40.5,75.4 M40.5,74.4c-1.7,0-3,1.4-3,3
			c0,1.7,1.3,3,3,3c1.7,0,3-1.4,3-3C43.5,75.8,42.2,74.4,40.5,74.4L40.5,74.4z"/>
	</g>
	<g id="XMLID_472_">
		<path class="st0" d="M49.2,75.4c1.1,0,2,0.9,2,2s-0.9,2-2,2s-2-0.9-2-2S48.1,75.4,49.2,75.4 M49.2,74.4c-1.7,0-3,1.4-3,3
			c0,1.7,1.3,3,3,3s3-1.4,3-3C52.2,75.8,50.9,74.4,49.2,74.4L49.2,74.4z"/>
	</g>
	<g id="XMLID_473_">
		<path class="st0" d="M57.9,75.4c1.1,0,2,0.9,2,2s-0.9,2-2,2s-2-0.9-2-2S56.8,75.4,57.9,75.4 M57.9,74.4c-1.7,0-3,1.4-3,3
			c0,1.7,1.3,3,3,3c1.7,0,3-1.4,3-3C60.9,75.8,59.6,74.4,57.9,74.4L57.9,74.4z"/>
	</g>
	<path id="XMLID_474_" class="st0" d="M64.1,79c0-0.9-0.1-1.9-0.2-2.8c-0.2,0.4-0.2,0.8-0.2,1.2C63.6,78,63.8,78.6,64.1,79z"/>
	<g id="XMLID_475_">
		<path class="st0" d="M23.1,82.6c1.1,0,2,0.9,2,2s-0.9,2-2,2c-1.1,0-2-0.9-2-2S22,82.6,23.1,82.6 M23.1,81.6c-1.7,0-3,1.4-3,3
			c0,1.7,1.3,3,3,3c1.7,0,3-1.4,3-3C26.1,82.9,24.7,81.6,23.1,81.6L23.1,81.6z"/>
	</g>
	<g id="XMLID_476_">
		<path class="st0" d="M31.8,82.6c1.1,0,2,0.9,2,2s-0.9,2-2,2c-1.1,0-2-0.9-2-2S30.7,82.6,31.8,82.6 M31.8,81.6c-1.7,0-3,1.4-3,3
			c0,1.7,1.3,3,3,3c1.7,0,3-1.4,3-3C34.8,82.9,33.4,81.6,31.8,81.6L31.8,81.6z"/>
	</g>
	<g id="XMLID_477_">
		<path class="st0" d="M40.5,82.6c1.1,0,2,0.9,2,2s-0.9,2-2,2s-2-0.9-2-2S39.4,82.6,40.5,82.6 M40.5,81.6c-1.7,0-3,1.4-3,3
			c0,1.7,1.3,3,3,3c1.7,0,3-1.4,3-3C43.5,82.9,42.2,81.6,40.5,81.6L40.5,81.6z"/>
	</g>
	<g id="XMLID_478_">
		<path class="st0" d="M49.2,82.6c1.1,0,2,0.9,2,2s-0.9,2-2,2s-2-0.9-2-2S48.1,82.6,49.2,82.6 M49.2,81.6c-1.7,0-3,1.4-3,3
			c0,1.7,1.3,3,3,3s3-1.4,3-3C52.2,82.9,50.9,81.6,49.2,81.6L49.2,81.6z"/>
	</g>
	<g id="XMLID_479_">
		<path class="st0" d="M57.9,82.6c1.1,0,2,0.9,2,2s-0.9,2-2,2s-2-0.9-2-2S56.8,82.6,57.9,82.6 M57.9,81.6c-1.7,0-3,1.4-3,3
			c0,1.7,1.3,3,3,3c1.7,0,3-1.4,3-3C60.9,82.9,59.6,81.6,57.9,81.6L57.9,81.6z"/>
	</g>
	<path id="XMLID_480_" class="st0" d="M63.7,85.2c0.1-0.6,0.2-1.2,0.2-1.9c-0.2,0.4-0.3,0.8-0.3,1.3C63.6,84.8,63.7,85,63.7,85.2z"
		/>
	<g id="XMLID_481_">
		<path class="st0" d="M23.1,89.8c1.1,0,2,0.9,2,2s-0.9,2-2,2c-1.1,0-2-0.9-2-2S22,89.8,23.1,89.8 M23.1,88.8c-1.7,0-3,1.4-3,3
			s1.3,3,3,3c1.7,0,3-1.4,3-3S24.7,88.8,23.1,88.8L23.1,88.8z"/>
	</g>
	<g id="XMLID_482_">
		<path class="st0" d="M31.8,89.8c1.1,0,2,0.9,2,2s-0.9,2-2,2c-1.1,0-2-0.9-2-2S30.7,89.8,31.8,89.8 M31.8,88.8c-1.7,0-3,1.4-3,3
			s1.3,3,3,3c1.7,0,3-1.4,3-3S33.4,88.8,31.8,88.8L31.8,88.8z"/>
	</g>
	<g id="XMLID_483_">
		<path class="st0" d="M40.5,89.8c1.1,0,2,0.9,2,2s-0.9,2-2,2s-2-0.9-2-2S39.4,89.8,40.5,89.8 M40.5,88.8c-1.7,0-3,1.4-3,3
			s1.3,3,3,3c1.7,0,3-1.4,3-3S42.2,88.8,40.5,88.8L40.5,88.8z"/>
	</g>
	<g id="XMLID_484_">
		<path class="st0" d="M49.2,89.8c1.1,0,2,0.9,2,2s-0.9,2-2,2s-2-0.9-2-2S48.1,89.8,49.2,89.8 M49.2,88.8c-1.7,0-3,1.4-3,3
			s1.3,3,3,3s3-1.4,3-3S50.9,88.8,49.2,88.8L49.2,88.8z"/>
	</g>
	<g id="XMLID_485_">
		<path class="st0" d="M57.9,89.8c1.1,0,2,0.9,2,2s-0.9,2-2,2s-2-0.9-2-2S56.8,89.8,57.9,89.8 M57.9,88.8c-1.7,0-3,1.4-3,3
			s1.3,3,3,3c1.7,0,3-1.4,3-3S59.6,88.8,57.9,88.8L57.9,88.8z"/>
	</g>
	<g id="XMLID_486_">
		<path class="st0" d="M23.1,96.9c0.9,0,1.6,0.6,1.9,1.4h-3.8C21.4,97.5,22.2,96.9,23.1,96.9 M23.1,95.9c-1.7,0-3,1.4-3,3
			c0,0.1,0,0.2,0,0.3h6c0-0.1,0-0.2,0-0.3C26.1,97.3,24.7,95.9,23.1,95.9L23.1,95.9z"/>
	</g>
	<g id="XMLID_487_">
		<path class="st0" d="M31.8,96.9c0.9,0,1.6,0.6,1.9,1.4h-3.8C30.2,97.5,30.9,96.9,31.8,96.9 M31.8,95.9c-1.7,0-3,1.4-3,3
			c0,0.1,0,0.2,0,0.3h6c0-0.1,0-0.2,0-0.3C34.8,97.3,33.4,95.9,31.8,95.9L31.8,95.9z"/>
	</g>
	<g id="XMLID_488_">
		<path class="st0" d="M40.5,96.9c0.9,0,1.6,0.6,1.9,1.4h-3.8C38.9,97.5,39.6,96.9,40.5,96.9 M40.5,95.9c-1.7,0-3,1.4-3,3
			c0,0.1,0,0.2,0,0.3h6c0-0.1,0-0.2,0-0.3C43.5,97.3,42.2,95.9,40.5,95.9L40.5,95.9z"/>
	</g>
	<g id="XMLID_489_">
		<path class="st0" d="M49.2,96.9c0.9,0,1.6,0.6,1.9,1.4h-3.8C47.6,97.5,48.3,96.9,49.2,96.9 M49.2,95.9c-1.7,0-3,1.4-3,3
			c0,0.1,0,0.2,0,0.3h6c0-0.1,0-0.2,0-0.3C52.2,97.3,50.9,95.9,49.2,95.9L49.2,95.9z"/>
	</g>
	<path id="XMLID_146_" class="st0" d="M60.8,98.3h-2.6c0.4-0.6,0.9-1.2,1.3-1.9c-0.5-0.3-1-0.4-1.5-0.4c-1.7,0-3,1.3-3,3
		c0,0.1,0,0.2,0,0.3h4.6c-0.7,0.9-1.4,1.8-2.1,2.6L60.8,98.3z"/>
	<path id="XMLID_515_" class="st0" d="M17.5,63.1c0-1.5-1.1-2.7-2.5-3v5.9C16.4,65.8,17.5,64.6,17.5,63.1z"/>
	<path id="XMLID_516_" class="st0" d="M17.5,70.3c0-1.5-1.1-2.7-2.5-3v5.9C16.4,73,17.5,71.7,17.5,70.3z"/>
	<path id="XMLID_517_" class="st0" d="M17.5,77.4c0-1.5-1.1-2.7-2.5-3v5.9C16.4,80.2,17.5,78.9,17.5,77.4z"/>
	<path id="XMLID_518_" class="st0" d="M17.5,84.6c0-1.5-1.1-2.7-2.5-3v5.9C16.4,87.3,17.5,86.1,17.5,84.6z"/>
	<path id="XMLID_519_" class="st0" d="M17.5,91.8c0-1.5-1.1-2.7-2.5-3v5.9C16.4,94.5,17.5,93.3,17.5,91.8z"/>
	<path id="XMLID_520_" class="st0" d="M15,96v3.3h2.5c0-0.1,0-0.2,0-0.3C17.5,97.5,16.4,96.2,15,96z"/>
	<path id="XMLID_523_" class="st0" d="M4.5,93.9c-0.3-0.7-0.6-1.4-0.9-2.1C3.7,92.6,4,93.4,4.5,93.9z"/>
	<path id="XMLID_39_" class="st0" d="M24.7,111.3c-0.5-0.2-1.1-0.3-1.6-0.5L24.7,111.3z"/>
</g>
</svg>
