<?xml version="1.0" encoding="utf-8"?>
<!-- Generator: Adobe Illustrator 21.0.2, SVG Export Plug-In . SVG Version: 6.00 Build 0)  -->
<svg version="1.1" id="Слой_1" xmlns="http://www.w3.org/2000/svg" xmlns:xlink="http://www.w3.org/1999/xlink" x="0px" y="0px"
	 viewBox="0 -2 151 125" style="enable-background:new 0 0 151 125;" xml:space="preserve">
<style type="text/css">
	.st0{fill:#E74C1E;}
</style>
<g id="XMLID_1923_">
	<path id="XMLID_1926_" class="st0" d="M109.4,107.8C109.4,107.8,109.4,107.8,109.4,107.8l-3.3-4.8c-0.3,0.6-0.9,0.9-1.5,0.9
		c-1,0-1.8-0.8-1.8-1.9c0-0.9,0.6-1.6,1.4-1.8L101,96c-0.3,0.3-0.8,0.6-1.3,0.6c-1,0-1.8-0.8-1.8-1.9c0-0.7,0.4-1.4,0.9-1.7L98,91.7
		H35.4l2-2.7c-0.1,0-0.1,0.1-0.2,0.1c-1,0-1.8-0.8-1.8-1.8c0-1,0.8-1.8,1.8-1.8c0.9,0,1.6,0.7,1.7,1.6l3.4-4.8c-0.1,0-0.3,0-0.4,0
		c-1,0-1.8-0.8-1.8-1.9c0-1,0.8-1.9,1.8-1.9c0.9,0,1.7,0.8,1.8,1.8l10.9-15.1c0.1-0.6,0.5-1.1,1-1.3l3.9-5.4c0-0.1,0-0.3,0-0.4
		c0-1,0.7-1.8,1.7-1.9l3.4-4.7c-0.2-0.3-0.2-0.6-0.2-0.9c0-1,0.8-1.9,1.8-1.9c0.1,0,0.3,0,0.4,0.1l0.3-0.4L63,43.3
		c-0.1,1-0.8,1.7-1.8,1.7c-1,0-1.8-0.8-1.8-1.9c0-1,0.8-1.9,1.8-1.9c0.1,0,0.2,0,0.4,0l-1.4-2c-0.6-1.1-1.4-1.9-2.4-2.4
		c-0.3,0.4-0.8,0.7-1.3,0.7c-0.8,0-1.5-0.6-1.7-1.4c-0.5,0-1,0.1-1.4,0.2c-0.3,0.7-0.9,1.2-1.6,1.2c-0.2,0-0.3,0-0.5-0.1
		c-0.6,0.5-1.1,1.1-1.5,1.9l-1.7,2.4c0.4,0.3,0.7,0.9,0.7,1.4c0,1-0.8,1.9-1.8,1.9c-0.4,0-0.7-0.1-1-0.3l-3,4.2
		c0.6,0.3,1.1,0.9,1.1,1.7c0,1-0.8,1.9-1.8,1.9c-0.5,0-1-0.3-1.4-0.7l-3.2,4.4c0.9,0.1,1.5,0.9,1.5,1.8c0,1-0.8,1.9-1.8,1.9
		c-0.7,0-1.3-0.4-1.6-1.1l-3.5,4.8c0.1,0,0.2,0,0.3,0c1,0,1.8,0.8,1.8,1.9s-0.8,1.9-1.8,1.9c-0.9,0-1.7-0.7-1.8-1.7l-4.2,5.9
		c0.3-0.3,0.7-0.5,1.2-0.5c1,0,1.8,0.8,1.8,1.9s-0.8,1.9-1.8,1.9s-1.8-0.8-1.8-1.9c0-0.3,0.1-0.5,0.2-0.8l-6.3,8.7
		c-0.1,0.5-0.4,0.8-0.8,1.1l-4,5.5c-0.1,0.7-0.5,1.3-1.1,1.5l-3.7,5.2c0,0.2,0.1,0.3,0.1,0.5c0,1-0.8,1.9-1.8,1.9c0,0,0,0,0,0
		l-3.3,4.6c0.2,0.3,0.3,0.6,0.3,1c0,1-0.8,1.9-1.8,1.9c-0.2,0-0.3,0-0.5-0.1L0,108.3c0.2,0.2,0.3,0,0.4,0.7H2
		c0.3-0.7,0.9-1.1,1.6-1.1s1.3,0.4,1.6,1.1h1.6c0.3-0.7,0.9-1.1,1.6-1.1c0.7,0,1.3,0.4,1.6,1.1h1.6c0.3-0.7,0.9-1.1,1.6-1.1
		c0.7,0,1.3,0.4,1.6,1.1h1.6c0.3-0.7,0.9-1.1,1.6-1.1s1.3,0.4,1.6,1.1h1.6c0.3-0.7,0.9-1.1,1.6-1.1s1.3,0.4,1.6,1.1H26
		c0.3-0.7,0.9-1.1,1.6-1.1s1.3,0.4,1.6,1.1h1.6c0.3-0.7,0.9-1.1,1.6-1.1c0.7,0,1.3,0.4,1.6,1.1h1.6c0.3-0.7,0.9-1.1,1.6-1.1
		c0.7,0,1.3,0.4,1.6,1.1h1.6c0.3-0.7,0.9-1.1,1.6-1.1c0.7,0,1.3,0.4,1.6,1.1h1.6c0.3-0.7,0.9-1.1,1.6-1.1c0.7,0,1.3,0.4,1.6,1.1H50
		c0.3-0.7,0.9-1.1,1.6-1.1c0.7,0,1.3,0.4,1.6,1.1h1.6c0.3-0.7,0.9-1.1,1.6-1.1c0.7,0,1.3,0.4,1.6,1.1h1.6c0.3-0.7,0.9-1.1,1.6-1.1
		c0.7,0,1.3,0.4,1.6,1.1h1.6c0.3-0.7,0.9-1.1,1.6-1.1c0.7,0,1.3,0.4,1.6,1.1h1.6c0.3-0.7,0.9-1.1,1.6-1.1s1.3,0.4,1.6,1.1h1.7
		c0.3-0.7,0.9-1.1,1.6-1.1c0.7,0,1.3,0.4,1.6,1.1h1.6c0.3-0.7,0.9-1.1,1.6-1.1s1.3,0.4,1.6,1.1h1.6c0.3-0.7,0.9-1.1,1.6-1.1
		c0.7,0,1.3,0.4,1.6,1.1h1.6c0.3-0.7,0.9-1.1,1.6-1.1c0.7,0,1.3,0.4,1.6,1.1h1.6c0.3-0.7,0.9-1.1,1.6-1.1c0.7,0,1.3,0.4,1.6,1.1h1.6
		c0.3-0.7,0.9-1.1,1.6-1.1s1.3,0.4,1.6,1.1h1.6c0.3-0.7,0.9-1.1,1.6-1.1c0.7,0,1.3,0.4,1.6,1.1h1.6
		C108,108.3,108.6,107.8,109.4,107.8z M61.2,48.4c1,0,1.8,0.8,1.8,1.9c0,1-0.8,1.9-1.8,1.9c-1,0-1.8-0.8-1.8-1.9
		C59.4,49.3,60.2,48.4,61.2,48.4z M56.4,41c1,0,1.8,0.8,1.8,1.9c0,1-0.8,1.9-1.8,1.9c-1,0-1.8-0.8-1.8-1.9
		C54.6,41.8,55.4,41,56.4,41z M56.4,48.4c1,0,1.8,0.8,1.8,1.9c0,1-0.8,1.9-1.8,1.9c-1,0-1.8-0.8-1.8-1.9
		C54.6,49.3,55.4,48.4,56.4,48.4z M56.4,55.9c1,0,1.8,0.8,1.8,1.9c0,1-0.8,1.9-1.8,1.9c-1,0-1.8-0.8-1.8-1.9
		C54.6,56.7,55.4,55.9,56.4,55.9z M51.6,41c1,0,1.8,0.8,1.8,1.9c0,1-0.8,1.9-1.8,1.9c-1,0-1.8-0.8-1.8-1.9
		C49.8,41.8,50.6,41,51.6,41z M51.6,48.4c1,0,1.8,0.8,1.8,1.9c0,1-0.8,1.9-1.8,1.9c-1,0-1.8-0.8-1.8-1.9
		C49.8,49.3,50.6,48.4,51.6,48.4z M51.6,55.9c1,0,1.8,0.8,1.8,1.9c0,1-0.8,1.9-1.8,1.9c-1,0-1.8-0.8-1.8-1.9
		C49.8,56.7,50.6,55.9,51.6,55.9z M51.6,63.3c1,0,1.8,0.8,1.8,1.9c0,1-0.8,1.9-1.8,1.9c-1,0-1.8-0.8-1.8-1.9
		C49.8,64.1,50.6,63.3,51.6,63.3z M46.8,48.4c1,0,1.8,0.8,1.8,1.9c0,1-0.8,1.9-1.8,1.9c-1,0-1.8-0.8-1.8-1.9
		C45,49.3,45.8,48.4,46.8,48.4z M46.8,55.9c1,0,1.8,0.8,1.8,1.9c0,1-0.8,1.9-1.8,1.9c-1,0-1.8-0.8-1.8-1.9
		C45,56.7,45.8,55.9,46.8,55.9z M46.8,63.3c1,0,1.8,0.8,1.8,1.9c0,1-0.8,1.9-1.8,1.9c-1,0-1.8-0.8-1.8-1.9
		C45,64.1,45.8,63.3,46.8,63.3z M46.8,70.7c1,0,1.8,0.8,1.8,1.9s-0.8,1.9-1.8,1.9c-1,0-1.8-0.8-1.8-1.9S45.8,70.7,46.8,70.7z
		 M42,55.9c1,0,1.8,0.8,1.8,1.9c0,1-0.8,1.9-1.8,1.9c-1,0-1.8-0.8-1.8-1.9C40.2,56.7,41,55.9,42,55.9z M42,63.3c1,0,1.8,0.8,1.8,1.9
		c0,1-0.8,1.9-1.8,1.9c-1,0-1.8-0.8-1.8-1.9C40.2,64.1,41,63.3,42,63.3z M42,70.7c1,0,1.8,0.8,1.8,1.9S43,74.5,42,74.5
		c-1,0-1.8-0.8-1.8-1.9S41,70.7,42,70.7z M37.2,63.3c1,0,1.8,0.8,1.8,1.9c0,1-0.8,1.9-1.8,1.9c-1,0-1.8-0.8-1.8-1.9
		C35.4,64.1,36.2,63.3,37.2,63.3z M37.2,70.7c1,0,1.8,0.8,1.8,1.9s-0.8,1.9-1.8,1.9c-1,0-1.8-0.8-1.8-1.9S36.2,70.7,37.2,70.7z
		 M37.2,78.2c1,0,1.8,0.8,1.8,1.9s-0.8,1.9-1.8,1.9c-1,0-1.8-0.8-1.8-1.9S36.2,78.2,37.2,78.2z M8.4,103.7c-1,0-1.8-0.8-1.8-1.9
		s0.8-1.9,1.8-1.9c1,0,1.8,0.8,1.8,1.9S9.4,103.7,8.4,103.7z M13.2,103.7c-1,0-1.8-0.8-1.8-1.9s0.8-1.9,1.8-1.9c1,0,1.8,0.8,1.8,1.9
		S14.2,103.7,13.2,103.7z M13.2,96.3c-1,0-1.8-0.8-1.8-1.9c0-1,0.8-1.9,1.8-1.9c1,0,1.8,0.8,1.8,1.9C15,95.4,14.2,96.3,13.2,96.3z
		 M18,103.7c-1,0-1.8-0.8-1.8-1.9S17,100,18,100s1.8,0.8,1.8,1.9S19,103.7,18,103.7z M18,96.3c-1,0-1.8-0.8-1.8-1.9
		c0-1,0.8-1.9,1.8-1.9s1.8,0.8,1.8,1.9C19.8,95.4,19,96.3,18,96.3z M18,88.8c-1,0-1.8-0.8-1.8-1.9s0.8-1.9,1.8-1.9s1.8,0.8,1.8,1.9
		S19,88.8,18,88.8z M22.8,103.7c-1,0-1.8-0.8-1.8-1.9s0.8-1.9,1.8-1.9s1.8,0.8,1.8,1.9S23.8,103.7,22.8,103.7z M22.8,96.3
		c-1,0-1.8-0.8-1.8-1.9c0-1,0.8-1.9,1.8-1.9s1.8,0.8,1.8,1.9C24.6,95.4,23.8,96.3,22.8,96.3z M22.8,88.8c-1,0-1.8-0.8-1.8-1.9
		s0.8-1.9,1.8-1.9s1.8,0.8,1.8,1.9S23.8,88.8,22.8,88.8z M22.8,81.9c-1,0-1.8-0.8-1.8-1.9s0.8-1.9,1.8-1.9s1.8,0.8,1.8,1.9
		S23.8,81.9,22.8,81.9z M27.6,103.7c-1,0-1.8-0.8-1.8-1.9s0.8-1.9,1.8-1.9s1.8,0.8,1.8,1.9S28.6,103.7,27.6,103.7z M27.6,96.3
		c-1,0-1.8-0.8-1.8-1.9c0-1,0.8-1.9,1.8-1.9s1.8,0.8,1.8,1.9C29.4,95.4,28.6,96.3,27.6,96.3z M27.6,88.8c-1,0-1.8-0.8-1.8-1.9
		s0.8-1.9,1.8-1.9s1.8,0.8,1.8,1.9S28.6,88.8,27.6,88.8z M27.6,81.9c-1,0-1.8-0.8-1.8-1.9s0.8-1.9,1.8-1.9s1.8,0.8,1.8,1.9
		S28.6,81.9,27.6,81.9z M32.4,103.7c-1,0-1.8-0.8-1.8-1.9s0.8-1.9,1.8-1.9c1,0,1.8,0.8,1.8,1.9S33.4,103.7,32.4,103.7z M32.4,96.3
		c-1,0-1.8-0.8-1.8-1.9c0-1,0.8-1.9,1.8-1.9c1,0,1.8,0.8,1.8,1.9C34.2,95.4,33.4,96.3,32.4,96.3z M32.4,88.8c-1,0-1.8-0.8-1.8-1.9
		s0.8-1.9,1.8-1.9c1,0,1.8,0.8,1.8,1.9S33.4,88.8,32.4,88.8z M32.4,81.9c-1,0-1.8-0.8-1.8-1.9s0.8-1.9,1.8-1.9c1,0,1.8,0.8,1.8,1.9
		S33.4,81.9,32.4,81.9z M32.4,74.5c-1,0-1.8-0.8-1.8-1.9s0.8-1.9,1.8-1.9c1,0,1.8,0.8,1.8,1.9S33.4,74.5,32.4,74.5z M37.2,103.7
		c-1,0-1.8-0.8-1.8-1.9s0.8-1.9,1.8-1.9c1,0,1.8,0.8,1.8,1.9S38.2,103.7,37.2,103.7z M37.2,96.3c-1,0-1.8-0.8-1.8-1.9
		c0-1,0.8-1.9,1.8-1.9c1,0,1.8,0.8,1.8,1.9C39,95.4,38.2,96.3,37.2,96.3z M42,103.7c-1,0-1.8-0.8-1.8-1.9S41,100,42,100
		c1,0,1.8,0.8,1.8,1.9S43,103.7,42,103.7z M42,96.3c-1,0-1.8-0.8-1.8-1.9c0-1,0.8-1.9,1.8-1.9c1,0,1.8,0.8,1.8,1.9
		C43.8,95.4,43,96.3,42,96.3z M46.8,103.7c-1,0-1.8-0.8-1.8-1.9s0.8-1.9,1.8-1.9c1,0,1.8,0.8,1.8,1.9S47.8,103.7,46.8,103.7z
		 M46.8,96.3c-1,0-1.8-0.8-1.8-1.9c0-1,0.8-1.9,1.8-1.9c1,0,1.8,0.8,1.8,1.9C48.6,95.4,47.8,96.3,46.8,96.3z M51.6,103.7
		c-1,0-1.8-0.8-1.8-1.9s0.8-1.9,1.8-1.9c1,0,1.8,0.8,1.8,1.9S52.6,103.7,51.6,103.7z M51.6,96.3c-1,0-1.8-0.8-1.8-1.9
		c0-1,0.8-1.9,1.8-1.9c1,0,1.8,0.8,1.8,1.9C53.4,95.4,52.6,96.3,51.6,96.3z M56.4,103.7c-1,0-1.8-0.8-1.8-1.9s0.8-1.9,1.8-1.9
		c1,0,1.8,0.8,1.8,1.9S57.4,103.7,56.4,103.7z M56.4,96.3c-1,0-1.8-0.8-1.8-1.9c0-1,0.8-1.9,1.8-1.9c1,0,1.8,0.8,1.8,1.9
		C58.2,95.4,57.4,96.3,56.4,96.3z M61.2,103.7c-1,0-1.8-0.8-1.8-1.9s0.8-1.9,1.8-1.9c1,0,1.8,0.8,1.8,1.9S62.2,103.7,61.2,103.7z
		 M61.2,96.3c-1,0-1.8-0.8-1.8-1.9c0-1,0.8-1.9,1.8-1.9c1,0,1.8,0.8,1.8,1.9C63,95.4,62.2,96.3,61.2,96.3z M66,103.7
		c-1,0-1.8-0.8-1.8-1.9S65,100,66,100c1,0,1.8,0.8,1.8,1.9S67,103.7,66,103.7z M66,96.3c-1,0-1.8-0.8-1.8-1.9c0-1,0.8-1.9,1.8-1.9
		c1,0,1.8,0.8,1.8,1.9C67.8,95.4,67,96.3,66,96.3z M70.8,103.7c-1,0-1.8-0.8-1.8-1.9s0.8-1.9,1.8-1.9s1.8,0.8,1.8,1.9
		S71.8,103.7,70.8,103.7z M70.8,96.3c-1,0-1.8-0.8-1.8-1.9c0-1,0.8-1.9,1.8-1.9s1.8,0.8,1.8,1.9C72.6,95.4,71.8,96.3,70.8,96.3z
		 M75.7,103.7c-1,0-1.8-0.8-1.8-1.9s0.8-1.9,1.8-1.9c1,0,1.8,0.8,1.8,1.9S76.7,103.7,75.7,103.7z M75.7,96.3c-1,0-1.8-0.8-1.8-1.9
		c0-1,0.8-1.9,1.8-1.9c1,0,1.8,0.8,1.8,1.9C77.5,95.4,76.7,96.3,75.7,96.3z M80.5,103.7c-1,0-1.8-0.8-1.8-1.9s0.8-1.9,1.8-1.9
		s1.8,0.8,1.8,1.9S81.5,103.7,80.5,103.7z M80.5,96.3c-1,0-1.8-0.8-1.8-1.9c0-1,0.8-1.9,1.8-1.9s1.8,0.8,1.8,1.9
		C82.3,95.4,81.5,96.3,80.5,96.3z M85.3,103.7c-1,0-1.8-0.8-1.8-1.9s0.8-1.9,1.8-1.9c1,0,1.8,0.8,1.8,1.9S86.3,103.7,85.3,103.7z
		 M85.3,96.3c-1,0-1.8-0.8-1.8-1.9c0-1,0.8-1.9,1.8-1.9c1,0,1.8,0.8,1.8,1.9C87.1,95.4,86.3,96.3,85.3,96.3z M90.1,103.7
		c-1,0-1.8-0.8-1.8-1.9s0.8-1.9,1.8-1.9c1,0,1.8,0.8,1.8,1.9S91.1,103.7,90.1,103.7z M90.1,96.3c-1,0-1.8-0.8-1.8-1.9
		c0-1,0.8-1.9,1.8-1.9c1,0,1.8,0.8,1.8,1.9C91.9,95.4,91.1,96.3,90.1,96.3z M94.9,103.7c-1,0-1.8-0.8-1.8-1.9s0.8-1.9,1.8-1.9
		c1,0,1.8,0.8,1.8,1.9S95.9,103.7,94.9,103.7z M94.9,96.3c-1,0-1.8-0.8-1.8-1.9c0-1,0.8-1.9,1.8-1.9c1,0,1.8,0.8,1.8,1.9
		C96.7,95.4,95.9,96.3,94.9,96.3z M99.7,103.7c-1,0-1.8-0.8-1.8-1.9s0.8-1.9,1.8-1.9s1.8,0.8,1.8,1.9S100.7,103.7,99.7,103.7z"/>
	<path id="XMLID_1992_" class="st0" d="M73.9,58c0-1,0.8-1.9,1.8-1.9c1,0,1.8,0.8,1.8,1.9c0,1-0.8,1.9-1.8,1.9c-0.4,0-0.7-0.1-1-0.3
		l4,5.6c0.1-0.9,0.9-1.6,1.7-1.6c1,0,1.8,0.8,1.8,1.9s-0.8,1.9-1.8,1.9c-0.1,0-0.1,0-0.2,0l3.4,4.8c0.3-0.6,0.9-1,1.6-1
		c1,0,1.8,0.8,1.8,1.9c0,0.9-0.6,1.7-1.4,1.8l3.1,4.4c0.3-0.4,0.8-0.6,1.3-0.6c1,0,1.8,0.8,1.8,1.9c0,0.7-0.4,1.4-1,1.7l2.8,3.9
		c0.3-0.3,0.7-0.5,1.2-0.5c1,0,1.8,0.8,1.8,1.9c0,0.7-0.4,1.2-0.9,1.5l2.2,3h53l-2.2-3c-0.3,0.2-0.6,0.4-1,0.4c-1,0-1.8-0.8-1.8-1.8
		c0-0.6,0.3-1.1,0.7-1.4l-2.8-3.9c-0.3,0.2-0.6,0.3-0.9,0.3c-1,0-1.8-0.8-1.8-1.9c0-0.5,0.2-1,0.6-1.4l-3.1-4.3
		c-0.2,0-0.3,0.1-0.5,0.1c-1,0-1.8-0.8-1.8-1.9c0-0.4,0.1-0.7,0.3-1l-3.3-4.6c-1,0-1.8-0.8-1.8-1.9c0-0.2,0-0.3,0.1-0.5l-3.8-5.2
		c-0.6-0.3-1-0.8-1.1-1.5l-10.9-15.1c0,1-0.8,1.8-1.8,1.8c-1,0-1.8-0.8-1.8-1.9c0-1,0.8-1.9,1.8-1.9c0.2,0,0.3,0,0.5,0.1l-3.6-5
		c-0.3,0.7-0.9,1.2-1.7,1.2c-1,0-1.8-0.8-1.8-1.9c0-1,0.7-1.8,1.7-1.8l-3.2-4.5c-0.3,0.5-0.8,0.8-1.4,0.8c-1,0-1.8-0.8-1.8-1.9
		c0-0.8,0.5-1.5,1.2-1.7l-3.1-4.3c-0.3,0.3-0.7,0.4-1.1,0.4c-1,0-1.8-0.8-1.8-1.9c0-0.6,0.3-1.2,0.8-1.5c-2.5-4.4-8.6-4.4-11,0
		l-0.7,1c0.1,0.2,0.1,0.4,0.1,0.6c0,1-0.8,1.9-1.8,1.9c0,0,0,0,0,0L82,27.2c0.2,0.3,0.3,0.7,0.3,1c0,1-0.8,1.9-1.8,1.9
		c-0.2,0-0.4,0-0.5-0.1l-3.1,4.3c0.4,0.3,0.6,0.8,0.6,1.4c0,1-0.8,1.9-1.8,1.9c-0.4,0-0.7-0.1-1-0.3l-3.1,4.3
		c0.5,0.3,0.9,0.9,0.9,1.6c0,1-0.8,1.9-1.8,1.9c-0.5,0-0.9-0.2-1.3-0.5l-2.9,4L74,58.6C74,58.4,73.9,58.2,73.9,58z M142.9,85.1
		c1,0,1.8,0.8,1.8,1.9s-0.8,1.9-1.8,1.9s-1.8-0.8-1.8-1.9S141.9,85.1,142.9,85.1z M138.1,78.2c1,0,1.8,0.8,1.8,1.9s-0.8,1.9-1.8,1.9
		c-1,0-1.8-0.8-1.8-1.9S137.1,78.2,138.1,78.2z M138.1,85.1c1,0,1.8,0.8,1.8,1.9s-0.8,1.9-1.8,1.9c-1,0-1.8-0.8-1.8-1.9
		S137.1,85.1,138.1,85.1z M133.3,70.7c1,0,1.8,0.8,1.8,1.9s-0.8,1.9-1.8,1.9c-1,0-1.8-0.8-1.8-1.9S132.3,70.7,133.3,70.7z
		 M133.3,78.2c1,0,1.8,0.8,1.8,1.9s-0.8,1.9-1.8,1.9c-1,0-1.8-0.8-1.8-1.9S132.3,78.2,133.3,78.2z M133.3,85.1c1,0,1.8,0.8,1.8,1.9
		s-0.8,1.9-1.8,1.9c-1,0-1.8-0.8-1.8-1.9S132.3,85.1,133.3,85.1z M128.5,63.3c1,0,1.8,0.8,1.8,1.9c0,1-0.8,1.9-1.8,1.9
		c-1,0-1.8-0.8-1.8-1.9C126.7,64.1,127.5,63.3,128.5,63.3z M128.5,70.7c1,0,1.8,0.8,1.8,1.9s-0.8,1.9-1.8,1.9c-1,0-1.8-0.8-1.8-1.9
		S127.5,70.7,128.5,70.7z M128.5,78.2c1,0,1.8,0.8,1.8,1.9s-0.8,1.9-1.8,1.9c-1,0-1.8-0.8-1.8-1.9S127.5,78.2,128.5,78.2z
		 M128.5,85.1c1,0,1.8,0.8,1.8,1.9s-0.8,1.9-1.8,1.9c-1,0-1.8-0.8-1.8-1.9S127.5,85.1,128.5,85.1z M123.7,55.9c1,0,1.8,0.8,1.8,1.9
		c0,1-0.8,1.9-1.8,1.9s-1.8-0.8-1.8-1.9C121.9,56.7,122.7,55.9,123.7,55.9z M123.7,63.3c1,0,1.8,0.8,1.8,1.9c0,1-0.8,1.9-1.8,1.9
		s-1.8-0.8-1.8-1.9C121.9,64.1,122.7,63.3,123.7,63.3z M123.7,70.7c1,0,1.8,0.8,1.8,1.9s-0.8,1.9-1.8,1.9s-1.8-0.8-1.8-1.9
		S122.7,70.7,123.7,70.7z M123.7,78.2c1,0,1.8,0.8,1.8,1.9s-0.8,1.9-1.8,1.9s-1.8-0.8-1.8-1.9S122.7,78.2,123.7,78.2z M123.7,85.1
		c1,0,1.8,0.8,1.8,1.9s-0.8,1.9-1.8,1.9s-1.8-0.8-1.8-1.9S122.7,85.1,123.7,85.1z M118.9,48.4c1,0,1.8,0.8,1.8,1.9
		c0,1-0.8,1.9-1.8,1.9c-1,0-1.8-0.8-1.8-1.9C117.1,49.3,117.9,48.4,118.9,48.4z M118.9,55.9c1,0,1.8,0.8,1.8,1.9
		c0,1-0.8,1.9-1.8,1.9c-1,0-1.8-0.8-1.8-1.9C117.1,56.7,117.9,55.9,118.9,55.9z M118.9,63.3c1,0,1.8,0.8,1.8,1.9
		c0,1-0.8,1.9-1.8,1.9c-1,0-1.8-0.8-1.8-1.9C117.1,64.1,117.9,63.3,118.9,63.3z M118.9,70.7c1,0,1.8,0.8,1.8,1.9s-0.8,1.9-1.8,1.9
		c-1,0-1.8-0.8-1.8-1.9S117.9,70.7,118.9,70.7z M118.9,78.2c1,0,1.8,0.8,1.8,1.9s-0.8,1.9-1.8,1.9c-1,0-1.8-0.8-1.8-1.9
		S117.9,78.2,118.9,78.2z M118.9,85.1c1,0,1.8,0.8,1.8,1.9s-0.8,1.9-1.8,1.9c-1,0-1.8-0.8-1.8-1.9S117.9,85.1,118.9,85.1z
		 M114.1,48.4c1,0,1.8,0.8,1.8,1.9c0,1-0.8,1.9-1.8,1.9c-1,0-1.8-0.8-1.8-1.9C112.3,49.3,113.1,48.4,114.1,48.4z M114.1,55.9
		c1,0,1.8,0.8,1.8,1.9c0,1-0.8,1.9-1.8,1.9c-1,0-1.8-0.8-1.8-1.9C112.3,56.7,113.1,55.9,114.1,55.9z M114.1,63.3
		c1,0,1.8,0.8,1.8,1.9c0,1-0.8,1.9-1.8,1.9c-1,0-1.8-0.8-1.8-1.9C112.3,64.1,113.1,63.3,114.1,63.3z M114.1,70.7
		c1,0,1.8,0.8,1.8,1.9s-0.8,1.9-1.8,1.9c-1,0-1.8-0.8-1.8-1.9S113.1,70.7,114.1,70.7z M114.1,78.2c1,0,1.8,0.8,1.8,1.9
		s-0.8,1.9-1.8,1.9c-1,0-1.8-0.8-1.8-1.9S113.1,78.2,114.1,78.2z M114.1,85.1c1,0,1.8,0.8,1.8,1.9s-0.8,1.9-1.8,1.9
		c-1,0-1.8-0.8-1.8-1.9S113.1,85.1,114.1,85.1z M109.3,41c1,0,1.8,0.8,1.8,1.9c0,1-0.8,1.9-1.8,1.9s-1.8-0.8-1.8-1.9
		C107.5,41.8,108.3,41,109.3,41z M109.3,48.4c1,0,1.8,0.8,1.8,1.9c0,1-0.8,1.9-1.8,1.9s-1.8-0.8-1.8-1.9
		C107.5,49.3,108.3,48.4,109.3,48.4z M109.3,55.9c1,0,1.8,0.8,1.8,1.9c0,1-0.8,1.9-1.8,1.9s-1.8-0.8-1.8-1.9
		C107.5,56.7,108.3,55.9,109.3,55.9z M109.3,63.3c1,0,1.8,0.8,1.8,1.9c0,1-0.8,1.9-1.8,1.9s-1.8-0.8-1.8-1.9
		C107.5,64.1,108.3,63.3,109.3,63.3z M109.3,70.7c1,0,1.8,0.8,1.8,1.9s-0.8,1.9-1.8,1.9s-1.8-0.8-1.8-1.9S108.3,70.7,109.3,70.7z
		 M109.3,78.2c1,0,1.8,0.8,1.8,1.9s-0.8,1.9-1.8,1.9s-1.8-0.8-1.8-1.9S108.3,78.2,109.3,78.2z M109.3,85.1c1,0,1.8,0.8,1.8,1.9
		s-0.8,1.9-1.8,1.9s-1.8-0.8-1.8-1.9S108.3,85.1,109.3,85.1z M104.5,33.5c1,0,1.8,0.8,1.8,1.9c0,1-0.8,1.9-1.8,1.9
		c-1,0-1.8-0.8-1.8-1.9C102.7,34.4,103.5,33.5,104.5,33.5z M104.5,41c1,0,1.8,0.8,1.8,1.9c0,1-0.8,1.9-1.8,1.9c-1,0-1.8-0.8-1.8-1.9
		C102.7,41.8,103.5,41,104.5,41z M104.5,48.4c1,0,1.8,0.8,1.8,1.9c0,1-0.8,1.9-1.8,1.9c-1,0-1.8-0.8-1.8-1.9
		C102.7,49.3,103.5,48.4,104.5,48.4z M104.5,55.9c1,0,1.8,0.8,1.8,1.9c0,1-0.8,1.9-1.8,1.9c-1,0-1.8-0.8-1.8-1.9
		C102.7,56.7,103.5,55.9,104.5,55.9z M104.5,63.3c1,0,1.8,0.8,1.8,1.9c0,1-0.8,1.9-1.8,1.9c-1,0-1.8-0.8-1.8-1.9
		C102.7,64.1,103.5,63.3,104.5,63.3z M104.5,70.7c1,0,1.8,0.8,1.8,1.9s-0.8,1.9-1.8,1.9c-1,0-1.8-0.8-1.8-1.9S103.5,70.7,104.5,70.7
		z M104.5,78.2c1,0,1.8,0.8,1.8,1.9s-0.8,1.9-1.8,1.9c-1,0-1.8-0.8-1.8-1.9S103.5,78.2,104.5,78.2z M104.5,85.1c1,0,1.8,0.8,1.8,1.9
		s-0.8,1.9-1.8,1.9c-1,0-1.8-0.8-1.8-1.9S103.5,85.1,104.5,85.1z M99.7,26.1c1,0,1.8,0.8,1.8,1.9c0,1-0.8,1.9-1.8,1.9
		S97.9,29,97.9,28C97.9,26.9,98.7,26.1,99.7,26.1z M99.7,33.5c1,0,1.8,0.8,1.8,1.9c0,1-0.8,1.9-1.8,1.9s-1.8-0.8-1.8-1.9
		C97.9,34.4,98.7,33.5,99.7,33.5z M99.7,41c1,0,1.8,0.8,1.8,1.9c0,1-0.8,1.9-1.8,1.9s-1.8-0.8-1.8-1.9C97.9,41.8,98.7,41,99.7,41z
		 M99.7,48.4c1,0,1.8,0.8,1.8,1.9c0,1-0.8,1.9-1.8,1.9s-1.8-0.8-1.8-1.9C97.9,49.3,98.7,48.4,99.7,48.4z M99.7,55.9
		c1,0,1.8,0.8,1.8,1.9c0,1-0.8,1.9-1.8,1.9s-1.8-0.8-1.8-1.9C97.9,56.7,98.7,55.9,99.7,55.9z M99.7,63.3c1,0,1.8,0.8,1.8,1.9
		c0,1-0.8,1.9-1.8,1.9s-1.8-0.8-1.8-1.9C97.9,64.1,98.7,63.3,99.7,63.3z M99.7,70.7c1,0,1.8,0.8,1.8,1.9s-0.8,1.9-1.8,1.9
		s-1.8-0.8-1.8-1.9S98.7,70.7,99.7,70.7z M99.7,78.2c1,0,1.8,0.8,1.8,1.9s-0.8,1.9-1.8,1.9s-1.8-0.8-1.8-1.9S98.7,78.2,99.7,78.2z
		 M99.7,85.1c1,0,1.8,0.8,1.8,1.9s-0.8,1.9-1.8,1.9S97.9,88,97.9,87S98.7,85.1,99.7,85.1z M94.9,18.7c1,0,1.8,0.8,1.8,1.9
		c0,1-0.8,1.9-1.8,1.9c-1,0-1.8-0.8-1.8-1.9C93.1,19.5,93.9,18.7,94.9,18.7z M94.9,26.1c1,0,1.8,0.8,1.8,1.9c0,1-0.8,1.9-1.8,1.9
		c-1,0-1.8-0.8-1.8-1.9C93.1,26.9,93.9,26.1,94.9,26.1z M94.9,33.5c1,0,1.8,0.8,1.8,1.9c0,1-0.8,1.9-1.8,1.9c-1,0-1.8-0.8-1.8-1.9
		C93.1,34.4,93.9,33.5,94.9,33.5z M94.9,41c1,0,1.8,0.8,1.8,1.9c0,1-0.8,1.9-1.8,1.9c-1,0-1.8-0.8-1.8-1.9
		C93.1,41.8,93.9,41,94.9,41z M94.9,48.4c1,0,1.8,0.8,1.8,1.9c0,1-0.8,1.9-1.8,1.9c-1,0-1.8-0.8-1.8-1.9
		C93.1,49.3,93.9,48.4,94.9,48.4z M94.9,55.9c1,0,1.8,0.8,1.8,1.9c0,1-0.8,1.9-1.8,1.9c-1,0-1.8-0.8-1.8-1.9
		C93.1,56.7,93.9,55.9,94.9,55.9z M94.9,63.3c1,0,1.8,0.8,1.8,1.9c0,1-0.8,1.9-1.8,1.9c-1,0-1.8-0.8-1.8-1.9
		C93.1,64.1,93.9,63.3,94.9,63.3z M94.9,70.7c1,0,1.8,0.8,1.8,1.9s-0.8,1.9-1.8,1.9c-1,0-1.8-0.8-1.8-1.9S93.9,70.7,94.9,70.7z
		 M94.9,78.2c1,0,1.8,0.8,1.8,1.9s-0.8,1.9-1.8,1.9c-1,0-1.8-0.8-1.8-1.9S93.9,78.2,94.9,78.2z M90.1,18.7c1,0,1.8,0.8,1.8,1.9
		c0,1-0.8,1.9-1.8,1.9c-1,0-1.8-0.8-1.8-1.9C88.3,19.5,89.1,18.7,90.1,18.7z M90.1,26.1c1,0,1.8,0.8,1.8,1.9c0,1-0.8,1.9-1.8,1.9
		c-1,0-1.8-0.8-1.8-1.9C88.3,26.9,89.1,26.1,90.1,26.1z M90.1,33.5c1,0,1.8,0.8,1.8,1.9c0,1-0.8,1.9-1.8,1.9c-1,0-1.8-0.8-1.8-1.9
		C88.3,34.4,89.1,33.5,90.1,33.5z M90.1,41c1,0,1.8,0.8,1.8,1.9c0,1-0.8,1.9-1.8,1.9c-1,0-1.8-0.8-1.8-1.9
		C88.3,41.8,89.1,41,90.1,41z M90.1,48.4c1,0,1.8,0.8,1.8,1.9c0,1-0.8,1.9-1.8,1.9c-1,0-1.8-0.8-1.8-1.9
		C88.3,49.3,89.1,48.4,90.1,48.4z M90.1,55.9c1,0,1.8,0.8,1.8,1.9c0,1-0.8,1.9-1.8,1.9c-1,0-1.8-0.8-1.8-1.9
		C88.3,56.7,89.1,55.9,90.1,55.9z M90.1,63.3c1,0,1.8,0.8,1.8,1.9c0,1-0.8,1.9-1.8,1.9c-1,0-1.8-0.8-1.8-1.9
		C88.3,64.1,89.1,63.3,90.1,63.3z M90.1,70.7c1,0,1.8,0.8,1.8,1.9s-0.8,1.9-1.8,1.9c-1,0-1.8-0.8-1.8-1.9S89.1,70.7,90.1,70.7z
		 M85.3,26.1c1,0,1.8,0.8,1.8,1.9c0,1-0.8,1.9-1.8,1.9c-1,0-1.8-0.8-1.8-1.9C83.5,26.9,84.3,26.1,85.3,26.1z M85.3,33.5
		c1,0,1.8,0.8,1.8,1.9c0,1-0.8,1.9-1.8,1.9c-1,0-1.8-0.8-1.8-1.9C83.5,34.4,84.3,33.5,85.3,33.5z M85.3,41c1,0,1.8,0.8,1.8,1.9
		c0,1-0.8,1.9-1.8,1.9c-1,0-1.8-0.8-1.8-1.9C83.5,41.8,84.3,41,85.3,41z M85.3,48.4c1,0,1.8,0.8,1.8,1.9c0,1-0.8,1.9-1.8,1.9
		c-1,0-1.8-0.8-1.8-1.9C83.5,49.3,84.3,48.4,85.3,48.4z M85.3,55.9c1,0,1.8,0.8,1.8,1.9c0,1-0.8,1.9-1.8,1.9c-1,0-1.8-0.8-1.8-1.9
		C83.5,56.7,84.3,55.9,85.3,55.9z M85.3,63.3c1,0,1.8,0.8,1.8,1.9c0,1-0.8,1.9-1.8,1.9c-1,0-1.8-0.8-1.8-1.9
		C83.5,64.1,84.3,63.3,85.3,63.3z M80.5,33.5c1,0,1.8,0.8,1.8,1.9c0,1-0.8,1.9-1.8,1.9s-1.8-0.8-1.8-1.9
		C78.7,34.4,79.5,33.5,80.5,33.5z M80.5,41c1,0,1.8,0.8,1.8,1.9c0,1-0.8,1.9-1.8,1.9s-1.8-0.8-1.8-1.9C78.7,41.8,79.5,41,80.5,41z
		 M80.5,48.4c1,0,1.8,0.8,1.8,1.9c0,1-0.8,1.9-1.8,1.9s-1.8-0.8-1.8-1.9C78.7,49.3,79.5,48.4,80.5,48.4z M80.5,55.9
		c1,0,1.8,0.8,1.8,1.9c0,1-0.8,1.9-1.8,1.9s-1.8-0.8-1.8-1.9C78.7,56.7,79.5,55.9,80.5,55.9z M75.7,41c1,0,1.8,0.8,1.8,1.9
		c0,1-0.8,1.9-1.8,1.9c-1,0-1.8-0.8-1.8-1.9C73.9,41.8,74.7,41,75.7,41z M75.7,48.4c1,0,1.8,0.8,1.8,1.9c0,1-0.8,1.9-1.8,1.9
		c-1,0-1.8-0.8-1.8-1.9C73.9,49.3,74.7,48.4,75.7,48.4z M70.8,52.1c-1,0-1.8-0.8-1.8-1.9c0-1,0.8-1.9,1.8-1.9s1.8,0.8,1.8,1.9
		C72.6,51.3,71.8,52.1,70.8,52.1z"/>
	<path id="XMLID_2167_" class="st0" d="M66,52.1c1,0,1.8-0.8,1.8-1.9c0-0.9-0.6-1.6-1.3-1.8l-2,2.7C64.8,51.8,65.4,52.1,66,52.1z"/>
	<path id="XMLID_2178_" class="st0" d="M61.2,59.6c1,0,1.8-0.8,1.8-1.9c0-1-0.8-1.9-1.8-1.9c0,0-0.1,0-0.1,0l-1.6,2.3
		C59.7,59,60.4,59.6,61.2,59.6z"/>
	<ellipse id="XMLID_2179_" class="st0" cx="66" cy="57.7" rx="1.8" ry="1.9"/>
	<ellipse id="XMLID_2180_" class="st0" cx="70.8" cy="57.7" rx="1.8" ry="1.9"/>
	<path id="XMLID_2190_" class="st0" d="M56.4,67c1,0,1.8-0.8,1.8-1.9c0-1-0.8-1.9-1.8-1.9c-0.3,0-0.6,0.1-0.8,0.2l-1,1.3
		c0,0.1,0,0.2,0,0.3C54.6,66.2,55.4,67,56.4,67z"/>
	<ellipse id="XMLID_2191_" class="st0" cx="61.2" cy="65.2" rx="1.8" ry="1.9"/>
	<ellipse id="XMLID_2192_" class="st0" cx="66" cy="65.2" rx="1.8" ry="1.9"/>
	<ellipse id="XMLID_2193_" class="st0" cx="70.8" cy="65.2" rx="1.8" ry="1.9"/>
	<path id="XMLID_2201_" class="st0" d="M26,71.8l0.4-0.6C26.3,71.4,26.1,71.6,26,71.8z"/>
	<ellipse id="XMLID_2202_" class="st0" cx="51.6" cy="72.6" rx="1.8" ry="1.9"/>
	<ellipse id="XMLID_2203_" class="st0" cx="56.4" cy="72.6" rx="1.8" ry="1.9"/>
	<ellipse id="XMLID_2204_" class="st0" cx="61.2" cy="72.6" rx="1.8" ry="1.9"/>
	<ellipse id="XMLID_2205_" class="st0" cx="66" cy="72.6" rx="1.8" ry="1.9"/>
	<ellipse id="XMLID_2206_" class="st0" cx="70.8" cy="72.6" rx="1.8" ry="1.9"/>
	<path id="XMLID_2213_" class="st0" d="M43.8,80.1c0,0,0-0.1,0-0.1l-1.4,1.9C43.2,81.7,43.8,80.9,43.8,80.1z"/>
	<ellipse id="XMLID_2214_" class="st0" cx="46.8" cy="80.1" rx="1.8" ry="1.9"/>
	<ellipse id="XMLID_2215_" class="st0" cx="51.6" cy="80.1" rx="1.8" ry="1.9"/>
	<ellipse id="XMLID_2216_" class="st0" cx="56.4" cy="80.1" rx="1.8" ry="1.9"/>
	<ellipse id="XMLID_2217_" class="st0" cx="61.2" cy="80.1" rx="1.8" ry="1.9"/>
	<ellipse id="XMLID_2218_" class="st0" cx="66" cy="80.1" rx="1.8" ry="1.9"/>
	<ellipse id="XMLID_2219_" class="st0" cx="70.8" cy="80.1" rx="1.8" ry="1.9"/>
	<path id="XMLID_2292_" class="st0" d="M74.7,59.3l-0.7-1C74.1,58.7,74.4,59.1,74.7,59.3z"/>
	<ellipse id="XMLID_2299_" class="st0" cx="75.7" cy="65.2" rx="1.8" ry="1.9"/>
	<path id="XMLID_2300_" class="st0" d="M78.7,65.2c0,1,0.7,1.7,1.6,1.8l-1.5-2.1C78.7,65,78.7,65.1,78.7,65.2z"/>
	<ellipse id="XMLID_2306_" class="st0" cx="75.7" cy="72.6" rx="1.8" ry="1.9"/>
	<ellipse id="XMLID_2307_" class="st0" cx="80.5" cy="72.6" rx="1.8" ry="1.9"/>
	<path id="XMLID_2308_" class="st0" d="M83.5,72.6c0,1,0.8,1.9,1.8,1.9c0.1,0,0.2,0,0.3,0l-1.9-2.7C83.6,72,83.5,72.3,83.5,72.6z"/>
	<ellipse id="XMLID_2313_" class="st0" cx="75.7" cy="80.1" rx="1.8" ry="1.9"/>
	<ellipse id="XMLID_2314_" class="st0" cx="80.5" cy="80.1" rx="1.8" ry="1.9"/>
	<ellipse id="XMLID_2315_" class="st0" cx="85.3" cy="80.1" rx="1.8" ry="1.9"/>
	<path id="XMLID_2316_" class="st0" d="M88.3,80.1c0,1,0.8,1.9,1.8,1.9c0.3,0,0.5-0.1,0.8-0.2l-2.1-2.9
		C88.5,79.1,88.3,79.6,88.3,80.1z"/>
	<path id="XMLID_2325_" class="st0" d="M39,87c0-0.1,0-0.2,0-0.3l-1.5,2.2C38.3,88.7,39,87.9,39,87z"/>
	<ellipse id="XMLID_2326_" class="st0" cx="42" cy="87" rx="1.8" ry="1.9"/>
	<ellipse id="XMLID_2327_" class="st0" cx="46.8" cy="87" rx="1.8" ry="1.9"/>
	<ellipse id="XMLID_2328_" class="st0" cx="51.6" cy="87" rx="1.8" ry="1.9"/>
	<ellipse id="XMLID_2329_" class="st0" cx="56.4" cy="87" rx="1.8" ry="1.9"/>
	<ellipse id="XMLID_2330_" class="st0" cx="61.2" cy="87" rx="1.8" ry="1.9"/>
	<ellipse id="XMLID_2331_" class="st0" cx="66" cy="87" rx="1.8" ry="1.9"/>
	<ellipse id="XMLID_2332_" class="st0" cx="70.8" cy="87" rx="1.8" ry="1.9"/>
	<ellipse id="XMLID_2459_" class="st0" cx="75.7" cy="87" rx="1.8" ry="1.9"/>
	<ellipse id="XMLID_2460_" class="st0" cx="80.5" cy="87" rx="1.8" ry="1.9"/>
	<ellipse id="XMLID_2461_" class="st0" cx="85.3" cy="87" rx="1.8" ry="1.9"/>
	<ellipse id="XMLID_2462_" class="st0" cx="90.1" cy="87" rx="1.8" ry="1.9"/>
	<path id="XMLID_2463_" class="st0" d="M93.1,87c0,1,0.8,1.9,1.8,1.9c0.3,0,0.6-0.1,0.9-0.3l-2.1-2.9C93.4,85.9,93.1,86.4,93.1,87z"
		/>
</g>
</svg>
