<?xml version="1.0" encoding="utf-8"?>
<!-- Generator: Adobe Illustrator 21.0.2, SVG Export Plug-In . SVG Version: 6.00 Build 0)  -->
<svg version="1.1" id="Слой_1" xmlns="http://www.w3.org/2000/svg" xmlns:xlink="http://www.w3.org/1999/xlink" x="0px" y="0px"
	 viewBox="0 0 151 125" style="enable-background:new 0 0 151 125;" xml:space="preserve">
<style type="text/css">
	.st0{fill:#000000;}
</style>
<g id="XMLID_647_">
	<path id="XMLID_650_" class="st0" d="M80.3,54.5l-3.7,2.2l-1.5-0.9l2.4,3.6c1.5,0.4,2.6,1.9,2.6,3.6c0,0.1,0,0.3,0,0.4l4.6,7l1.7-1
		l3.6,2.2V76l-1.2,0.7l4.2,6.4c0.5-1.4,1.8-2.3,3.3-2.3c2,0,3.6,1.7,3.6,3.7c0,2-1.5,3.8-3.5,3.8l1.8,2.8h40.3l-2.2-2.9
		c-0.2,0-0.4,0-0.6,0c-2,0-3.6-1.7-3.6-3.8c0-0.4,0.1-0.9,0.2-1.3l-4.8-6.1l-1.7,1l-3.7-2.2v-4.4l0.6-0.4l-4.3-5.5
		c-0.6,0.6-1.5,1-2.4,1c-2,0-3.5-1.7-3.5-3.7c0-1.2,0.6-2.3,1.5-3l-4.3-5.4l-3.6,2.1l-3.8-2.2v-4.6l2.5-1.4l-5-6.4
		c-0.4,1.6-1.7,2.8-3.4,2.8c-2,0-3.5-1.7-3.5-3.7c0-2,1.5-3.6,3.3-3.7l-1.4-1.8c-2.1-2.6-5.8-2.6-7.9,0l-1.6,2
		c0.4-0.2,0.8-0.2,1.3-0.2c2,0,3.6,1.7,3.6,3.7c0,2.1-1.6,3.7-3.6,3.7c-2,0-3.6-1.7-3.6-3.7c0-0.2,0-0.5,0.1-0.7L77,47.9l3.3,2V54.5
		z M125.6,80.7c2,0,3.6,1.7,3.6,3.7s-1.6,3.7-3.6,3.7c-2,0-3.6-1.7-3.6-3.7S123.7,80.7,125.6,80.7z M105.9,88.2
		c-2,0-3.6-1.7-3.6-3.7s1.6-3.7,3.6-3.7s3.6,1.7,3.6,3.7S107.9,88.2,105.9,88.2z M115.8,88.2c-2,0-3.6-1.7-3.6-3.7s1.6-3.7,3.6-3.7
		s3.6,1.7,3.6,3.7S117.7,88.2,115.8,88.2z M112.4,71.4l3.3-2.2l3.3,2.2v4.4l-3.3,2.2l-3.3-2.2V71.4z M105.9,59.2
		c2,0,3.6,1.7,3.6,3.7s-1.6,3.7-3.6,3.7s-3.6-1.7-3.6-3.7S103.9,59.2,105.9,59.2z M102.1,71.4l3.6-2.2l3.6,2.2v4.4l-3.6,2.2
		l-3.6-2.2V71.4z M92.4,49.9l3.6-2.2l3.6,2.2v4.4l-3.6,2.2l-3.6-2.2V49.9z M99.6,62.9c0,2.1-1.6,3.7-3.6,3.7s-3.6-1.7-3.6-3.7
		s1.6-3.7,3.6-3.7S99.6,60.8,99.6,62.9z M92.4,71.4l3.6-2.2l3.6,2.2v4.4l-3.6,2.2l-3.6-2.2V71.4z M86.1,66.6c-2,0-3.6-1.7-3.6-3.7
		s1.6-3.7,3.6-3.7s3.6,1.7,3.6,3.7S88.1,66.6,86.1,66.6z M82.7,49.9l3.6-2.2l3.6,2.2v4.4l-3.6,2.2l-3.6-2.2V49.9z"/>
	<polygon id="XMLID_661_" class="st0" points="102.1,97.6 99.7,93.7 99.7,97.8 97,99.7 103.8,99.7 102.5,98 102.1,97.8 	"/>
	<path id="XMLID_664_" class="st0" d="M92.4,93.4l3.8-2.2l3.3,2.1l-1.3-2H42.8l2.5-3.2c-1.1-0.6-1.9-1.9-1.9-3.4
		c0-2.1,1.6-3.8,3.6-3.8c1.1,0,2.2,0.6,2.8,1.4l4.4-5.6L53,76v-4.4l3.7-2.2l2.2,1.3l4.6-5.8c-0.3-0.5-0.5-1.2-0.5-1.8
		c0-2.1,1.6-3.7,3.6-3.7c0.4,0,0.9,0.1,1.3,0.2l5.1-6.3v-0.7l-5.2-7.7c-0.4,0.1-0.8,0.2-1.2,0.2c-2,0-3.6-1.7-3.6-3.7
		c0-0.9,0.3-1.7,0.8-2.4L60,32.9l-3.3,1.9L53,32.7v-4.6l2.7-1.6c-2.1-2.3-5.3-2.2-7.3,0.2l2.2,1.3v4.4l-3.6,2.2l-2.8-1.7l-4,6.1
		c0.3,0.6,0.5,1.2,0.5,1.9c0,2.1-1.6,3.7-3.6,3.7c-0.2,0-0.6,0-0.8-0.1l-5.8,8.5v1l-1,0.7l-2.6,4.1c0.1,0,0.2,0,0.2,0
		c2,0,3.6,1.7,3.6,3.7s-1.6,3.7-3.5,3.7c-1.6,0-2.9-1.1-3.4-2.6l-4.4,6.5l1.4,0.9V76l-3.6,2.2l-2-1.2L11,83.7
		c0.1,0.3,0.1,0.6,0.1,0.9c0,1.9-1.3,3.5-3.1,3.7l-2.8,4.3l2.4-1.5l3.6,2.2v4.4l-3,1.9h8.5l-3.1-1.9v-4.4l3.6-2.2l3.6,2.2v4.4
		L18,99.7h8.5l-3.3-1.9v-4.4l3.6-2.2l3.6,2.2v4.4l-2.7,1.9h8.5L33,97.8v-4.4l3.6-2.2l3.6,2.2v4.4l-2.5,1.9h8.5l-3.6-1.9v-4.4
		l3.9-2.2l3.9,2.2v4.4l-3,1.9h8.5L53,97.8v-4.4l3.6-2.2l3.6,2.2v4.4l-2.8,1.9H66l-3.3-1.9v-4.4l3.6-2.2l3.6,2.2v4.4l-2.7,1.9h8.5
		L73,97.8v-4.4l3.6-2.2l3.6,2.2v4.4l-3.1,1.9h8.5l-3-1.9v-4.4l3.6-2.2l3.6,2.2v4.4l-3,1.9h8.7l-3.2-1.9V93.4z M56.5,66.6
		c-2,0-3.6-1.7-3.6-3.7s1.6-3.7,3.6-3.7s3.6,1.7,3.6,3.7S58.5,66.6,56.5,66.6z M62.7,49.9l3.6-2.2l3.6,2.2v4.4l-3.6,2.2l-3.6-2.2
		V49.9z M56.5,37.4c2,0,3.6,1.7,3.6,3.7c0,2.1-1.6,3.7-3.6,3.7S53,43.2,53,41.1C53,39,54.6,37.4,56.5,37.4z M53,49.9l3.6-2.2
		l3.6,2.2v4.4l-3.6,2.2L53,54.3V49.9z M46.7,37.4c2,0,3.6,1.7,3.6,3.7c0,2.1-1.6,3.7-3.6,3.7c-2,0-3.6-1.7-3.6-3.7
		C43.1,39,44.7,37.4,46.7,37.4z M42.7,49.9l3.9-2.2l3.9,2.2v4.4l-3.9,2.2l-3.9-2.2V49.9z M50.2,62.9c0,2.1-1.6,3.7-3.6,3.7
		c-2,0-3.6-1.7-3.6-3.7s1.6-3.7,3.6-3.7C48.6,59.2,50.2,60.8,50.2,62.9z M42.7,71.4l3.9-2.2l3.9,2.2v4.4l-3.9,2.2l-3.9-2.2V71.4z
		 M17.1,88.2c-2,0-3.6-1.7-3.6-3.7s1.6-3.7,3.6-3.7s3.6,1.7,3.6,3.7S19.1,88.2,17.1,88.2z M27,88.2c-2,0-3.6-1.7-3.6-3.7
		s1.6-3.7,3.6-3.7s3.6,1.7,3.6,3.7S28.9,88.2,27,88.2z M30.6,75.9l-3.6,2.2l-3.6-2.2v-4.4l3.6-2.2l3.6,2.2V75.9z M36.8,88.2
		c-2,0-3.6-1.7-3.6-3.7s1.6-3.7,3.6-3.7s3.6,1.7,3.6,3.7S38.8,88.2,36.8,88.2z M40.3,75.9l-3.6,2.2L33,75.9v-4.4l3.6-2.2l3.6,2.2
		V75.9z M33.3,62.9c0-2.1,1.6-3.7,3.6-3.7s3.6,1.7,3.6,3.7s-1.6,3.7-3.6,3.7S33.3,65,33.3,62.9z M40.3,54.3l-3.6,2.2L33,54.3v-4.4
		l3.6-2.2l3.6,2.2V54.3z"/>
	<polygon id="XMLID_679_" class="st0" points="3.9,94.5 0.5,99.7 6.9,99.7 3.9,97.8 	"/>
	<polygon id="XMLID_703_" class="st0" points="75.1,55.7 73.2,52.7 73,53 73,54.3 	"/>
	<path id="XMLID_708_" class="st0" d="M66.4,66.6c2,0,3.6-1.7,3.6-3.7c0-1.6-1-3-2.4-3.5l-4.3,5.4C63.9,65.9,65.1,66.6,66.4,66.6z"
		/>
	<path id="XMLID_709_" class="st0" d="M72.7,62.9c0,2.1,1.6,3.7,3.6,3.7c1.8,0,3.4-1.5,3.5-3.4l-2.6-4c-0.3-0.1-0.6-0.1-0.9-0.1
		C74.3,59.2,72.7,60.8,72.7,62.9z"/>
	<polygon id="XMLID_713_" class="st0" points="60.3,75.9 60.3,71.4 58.9,70.5 54.2,76.5 56.7,78.1 	"/>
	<polygon id="XMLID_714_" class="st0" points="62.7,71.4 62.7,75.9 66.3,78.1 70,75.9 70,71.4 66.3,69.2 	"/>
	<polygon id="XMLID_715_" class="st0" points="73,71.4 73,75.9 76.6,78.1 80.3,75.9 80.3,71.4 76.6,69.2 	"/>
	<polygon id="XMLID_716_" class="st0" points="82.7,75.9 86.4,78.1 88.8,76.6 84.6,70.3 82.7,71.4 	"/>
	<path id="XMLID_719_" class="st0" d="M50.2,84.4c0-0.9-0.3-1.7-0.7-2.3L45,87.8c0.5,0.3,1,0.4,1.6,0.4
		C48.6,88.2,50.2,86.5,50.2,84.4z"/>
	<ellipse id="XMLID_720_" class="st0" cx="56.5" cy="84.4" rx="3.6" ry="3.7"/>
	<ellipse id="XMLID_721_" class="st0" cx="66.4" cy="84.4" rx="3.6" ry="3.7"/>
	<ellipse id="XMLID_722_" class="st0" cx="76.2" cy="84.4" rx="3.6" ry="3.7"/>
	<ellipse id="XMLID_723_" class="st0" cx="86.1" cy="84.4" rx="3.6" ry="3.7"/>
	<polygon id="XMLID_726_" class="st0" points="7.3,100.1 7.9,99.7 6.6,99.7 	"/>
	<polygon id="XMLID_727_" class="st0" points="17.1,100.1 17.8,99.7 16.5,99.7 	"/>
	<polygon id="XMLID_728_" class="st0" points="27,100.1 27.6,99.7 26.3,99.7 	"/>
	<polygon id="XMLID_729_" class="st0" points="36.8,100.1 37.5,99.7 36.2,99.7 	"/>
	<polygon id="XMLID_730_" class="st0" points="46.7,100.1 47.3,99.7 46,99.7 	"/>
	<polygon id="XMLID_731_" class="st0" points="56.5,100.1 57.2,99.7 55.9,99.7 	"/>
	<polygon id="XMLID_732_" class="st0" points="66.4,100.1 67,99.7 65.7,99.7 	"/>
	<polygon id="XMLID_733_" class="st0" points="76.2,100.1 76.9,99.7 75.6,99.7 	"/>
	<polygon id="XMLID_734_" class="st0" points="86.1,100.1 86.7,99.7 85.4,99.7 	"/>
	<path id="XMLID_789_" class="st0" d="M96.1,88.2C96.1,88.2,96.1,88.2,96.1,88.2L92.8,83c-0.2,0.4-0.3,0.9-0.3,1.4
		C92.5,86.5,94.1,88.2,96.1,88.2z"/>
	<polygon id="XMLID_796_" class="st0" points="99.7,93.3 99.3,93 99.7,93.6 	"/>
	<polygon id="XMLID_797_" class="st0" points="96.1,100.1 96.7,99.7 95.4,99.7 	"/>
</g>
</svg>
