<?xml version="1.0" encoding="utf-8"?>
<!-- Generator: Adobe Illustrator 21.0.2, SVG Export Plug-In . SVG Version: 6.00 Build 0)  -->
<svg version="1.1" id="Слой_1" xmlns="http://www.w3.org/2000/svg" xmlns:xlink="http://www.w3.org/1999/xlink" x="0px" y="0px"
	 viewBox="0 0 151 125" style="enable-background:new 0 0 151 125;" xml:space="preserve">
<style type="text/css">
	.st0{fill:#E74C1E;stroke:#E74C1E;stroke-miterlimit:10;}
	.st1{fill:none;stroke:#E74C1E;stroke-miterlimit:10;}
</style>
<g id="XMLID_20_">
	<g id="XMLID_79_">
		<rect id="XMLID_1_" x="4.3" y="28.3" class="st0" width="51.2" height="42.3"/>
		<rect id="XMLID_44_" x="59.4" y="28.3" class="st0" width="51.2" height="42.3"/>
	</g>
	<path id="XMLID_76_" class="st1" d="M113.5,79.5H1.5c-0.6,0-1-0.4-1-1v-1.8c0-0.6,0.4-1,1-1h112c0.6,0,1,0.4,1,1v1.8
		C114.5,79.1,114.1,79.5,113.5,79.5z"/>
	<g id="XMLID_78_">
		<circle id="XMLID_5_" class="st1" cx="11" cy="89.6" r="7.1"/>
		<circle id="XMLID_7_" class="st1" cx="29.4" cy="89.6" r="7.1"/>
		<circle id="XMLID_8_" class="st1" cx="47.9" cy="89.6" r="7.1"/>
		<circle id="XMLID_9_" class="st1" cx="66.3" cy="89.6" r="7.1"/>
		<circle id="XMLID_10_" class="st1" cx="84.7" cy="89.6" r="7.1"/>
		<circle id="XMLID_18_" class="st1" cx="11" cy="89.6" r="4.1"/>
		<circle id="XMLID_17_" class="st1" cx="29.4" cy="89.6" r="4.1"/>
		<circle id="XMLID_16_" class="st1" cx="47.9" cy="89.6" r="4.1"/>
		<circle id="XMLID_15_" class="st1" cx="66.3" cy="89.6" r="4.1"/>
		<circle id="XMLID_14_" class="st1" cx="84.7" cy="89.6" r="4.1"/>
		<circle id="XMLID_11_" class="st1" cx="103.2" cy="89.6" r="7.1"/>
		<circle id="XMLID_13_" class="st1" cx="103.2" cy="89.6" r="4.1"/>
	</g>
</g>
</svg>
