<svg width='64px' height='64px' xmlns="http://www.w3.org/2000/svg" viewBox="0 0 100 100" preserveAspectRatio="xMidYMid" class="uil-balls"><rect x="0" y="0" width="100" height="100" fill="none" class="bk"></rect><g transform="rotate(0 50 50)">
  <circle r="8" cx="12" cy="50">
    <animateTransform attributeName="transform" type="translate" begin="0s" repeatCount="indefinite" dur="1s" values="0 0;26.257354213751995 -36.14014761921583" keyTimes="0;1"/>
    <animate attributeName="fill" dur="1s" begin="0s" repeatCount="indefinite"  keyTimes="0;1" values="#39ccb0;#f56d6a"/>
  </circle>
</g><g transform="rotate(72 50 50)">
  <circle r="8" cx="12" cy="50">
    <animateTransform attributeName="transform" type="translate" begin="0s" repeatCount="indefinite" dur="1s" values="0 0;26.257354213751995 -36.14014761921583" keyTimes="0;1"/>
    <animate attributeName="fill" dur="1s" begin="0s" repeatCount="indefinite"  keyTimes="0;1" values="#f56d6a;#abb5fe"/>
  </circle>
</g><g transform="rotate(144 50 50)">
  <circle r="8" cx="12" cy="50">
    <animateTransform attributeName="transform" type="translate" begin="0s" repeatCount="indefinite" dur="1s" values="0 0;26.257354213751995 -36.14014761921583" keyTimes="0;1"/>
    <animate attributeName="fill" dur="1s" begin="0s" repeatCount="indefinite"  keyTimes="0;1" values="#abb5fe;#bc69f1"/>
  </circle>
</g><g transform="rotate(216 50 50)">
  <circle r="8" cx="12" cy="50">
    <animateTransform attributeName="transform" type="translate" begin="0s" repeatCount="indefinite" dur="1s" values="0 0;26.257354213751995 -36.14014761921583" keyTimes="0;1"/>
    <animate attributeName="fill" dur="1s" begin="0s" repeatCount="indefinite"  keyTimes="0;1" values="#bc69f1;#ffc930"/>
  </circle>
</g><g transform="rotate(288 50 50)">
  <circle r="8" cx="12" cy="50">
    <animateTransform attributeName="transform" type="translate" begin="0s" repeatCount="indefinite" dur="1s" values="0 0;26.257354213751995 -36.14014761921583" keyTimes="0;1"/>
    <animate attributeName="fill" dur="1s" begin="0s" repeatCount="indefinite"  keyTimes="0;1" values="#ffc930;#39ccb0"/>
  </circle>
</g></svg>