<?xml version="1.0" encoding="UTF-8"?>
<svg width="30px" height="30px" viewBox="0 0 30 30" version="1.1" xmlns="http://www.w3.org/2000/svg" xmlns:xlink="http://www.w3.org/1999/xlink">
    <!-- Generator: Sketch 47 (45396) - http://www.bohemiancoding.com/sketch -->
    <title>Custom Preset Copy 7</title>
    <desc>Created with Sketch.</desc>
    <defs></defs>
    <g id="Page-1" stroke="none" stroke-width="1" fill="none" fill-rule="evenodd">
        <g id="Custom-Preset-Copy-7">
            <g id="Огнеупорные-покрытия-для-форм-и-стержней">
                <path d="M28.7704918,13.6229508 L28.7704918,27.1967213 C28.7704918,27.8852459 28.2295082,28.4262295 27.5409836,28.4262295 L2.45901639,28.4262295 C1.7704918,28.4262295 1.2295082,27.8852459 1.2295082,27.1967213 L1.2295082,13.6229508 L0.344262295,13.6229508 L0.344262295,28.0327869 C0.344262295,28.7213115 0.885245902,29.2622951 1.57377049,29.2622951 L28.3278689,29.2622951 C29.0163934,29.2622951 29.557377,28.7213115 29.557377,28.0327869 L29.557377,13.6229508 L28.7704918,13.6229508 Z M28.3770492,0.0491803279 L1.62295082,0.0491803279 C0.93442623,0.0491803279 0.393442623,0.590163934 0.393442623,1.27868852 L0.393442623,13.2295082 L1.27868852,13.2295082 L1.27868852,2.1147541 C1.27868852,1.42622951 1.81967213,0.885245902 2.50819672,0.885245902 L27.5409836,0.885245902 C28.2295082,0.885245902 28.7704918,1.42622951 28.7704918,2.1147541 L28.7704918,13.2295082 L29.6557377,13.2295082 L29.6557377,1.27868852 C29.6065574,0.590163934 29.0655738,0.0491803279 28.3770492,0.0491803279 Z" id="XMLID_514_" stroke="#F84807"></path>
                <path d="M1.2295082,13.6229508 L1.2295082,27.1967213 C1.2295082,27.8852459 1.7704918,28.4262295 2.45901639,28.4262295 L27.5409836,28.4262295 C28.2295082,28.4262295 28.7704918,27.8852459 28.7704918,27.1967213 L28.7704918,13.6229508 L1.2295082,13.6229508 Z M21.7377049,24.6885246 C20.704918,24.6885246 19.8196721,24.2459016 19.1803279,23.5081967 L15.442623,26.6065574 L15.3934426,26.6557377 L14.5081967,26.6557377 L10.7704918,23.5081967 C10.1803279,24.2459016 9.24590164,24.6885246 8.21311475,24.6885246 C6.39344262,24.6885246 4.91803279,23.2131148 4.91803279,21.3934426 C4.91803279,19.5737705 6.39344262,18.0983607 8.21311475,18.0983607 C10.0327869,18.0983607 11.5081967,19.5737705 11.5081967,21.3934426 L14.5081967,23.5081967 L14.557377,23.5081967 L14.557377,20.3606557 C14.1639344,20.2131148 13.9180328,19.8196721 13.9180328,19.3770492 C13.9180328,18.7868852 14.4098361,18.295082 15,18.295082 C15.5901639,18.295082 16.0819672,18.7868852 16.0819672,19.3770492 C16.0819672,19.8196721 15.8360656,20.2131148 15.442623,20.3606557 L15.442623,20.3606557 L15.442623,23.4590164 L18.442623,21.3934426 C18.442623,19.5737705 19.9180328,18.0983607 21.7377049,18.0983607 C23.557377,18.0983607 25.0327869,19.5737705 25.0327869,21.3934426 C25.0327869,23.2131148 23.557377,24.6885246 21.7377049,24.6885246 Z" id="XMLID_441_" fill="#F84807" fill-rule="nonzero"></path>
                <path d="M25.0327869,21.3934426 C25.0327869,23.2131148 23.557377,24.6885246 21.7377049,24.6885246 C20.704918,24.6885246 19.8196721,24.2459016 19.1803279,23.5081967 L15.442623,26.6065574 L15.3934426,26.6557377 L14.5081967,26.6557377 L10.7704918,23.5081967 C10.1803279,24.2459016 9.24590164,24.6885246 8.21311475,24.6885246 C6.39344262,24.6885246 4.91803279,23.2131148 4.91803279,21.3934426 C4.91803279,19.5737705 6.39344262,18.0983607 8.21311475,18.0983607 C10.0327869,18.0983607 11.5081967,19.5737705 11.5081967,21.3934426 L14.5081967,23.5081967 L14.557377,23.5081967 L14.557377,20.3606557 C14.1639344,20.2131148 13.9180328,19.8196721 13.9180328,19.3770492 C13.9180328,18.7868852 14.4098361,18.295082 15,18.295082 C15.5901639,18.295082 16.0819672,18.7868852 16.0819672,19.3770492 C16.0819672,19.8196721 15.8360656,20.2131148 15.442623,20.3606557 L15.442623,20.3606557 L15.442623,23.4590164 L18.442623,21.3934426 C18.442623,19.5737705 19.9180328,18.0983607 21.7377049,18.0983607 C23.557377,18.0983607 25.0327869,19.5737705 25.0327869,21.3934426 Z" id="XMLID_403_" stroke="#F84807"></path>
                <path d="M27.5409836,0.885245902 L2.45901639,0.885245902 C1.7704918,0.885245902 1.2295082,1.42622951 1.2295082,2.1147541 L1.2295082,13.2295082 L28.7213115,13.2295082 L28.7213115,2.1147541 C28.7704918,1.42622951 28.1803279,0.885245902 27.5409836,0.885245902 Z M21.7377049,11.1639344 C19.9180328,11.1639344 18.442623,9.68852459 18.442623,7.86885246 L15.442623,5.75409836 L15.442623,8.85245902 C15.7868852,9.04918033 16.0819672,9.39344262 16.0819672,9.83606557 C16.0819672,10.4262295 15.5901639,10.9180328 15,10.9180328 C14.4098361,10.9180328 13.9180328,10.4262295 13.9180328,9.83606557 C13.9180328,9.39344262 14.2131148,9 14.557377,8.85245902 L14.557377,5.80327869 L11.557377,7.86885246 C11.557377,9.68852459 10.0819672,11.1639344 8.26229508,11.1639344 C6.44262295,11.1639344 4.96721311,9.68852459 4.96721311,7.86885246 C4.96721311,6.04918033 6.44262295,4.57377049 8.26229508,4.57377049 C9.29508197,4.57377049 10.1803279,5.01639344 10.7704918,5.75409836 L14.557377,2.60655738 L15.442623,2.60655738 L19.1803279,5.75409836 C19.7704918,5.01639344 20.704918,4.57377049 21.6885246,4.57377049 C23.5081967,4.57377049 24.9836066,6.04918033 24.9836066,7.86885246 C25.0327869,9.68852459 23.557377,11.1639344 21.7377049,11.1639344 Z" id="XMLID_443_" fill="#F84807" fill-rule="nonzero"></path>
                <g id="XMLID_159_" transform="translate(4.918033, 2.459016)" stroke="#F84807">
                    <g id="XMLID_36_">
                        <path d="M20.1147541,5.40983607 C20.1147541,7.2295082 18.6393443,8.70491803 16.8196721,8.70491803 C15,8.70491803 13.5245902,7.2295082 13.5245902,5.40983607 L10.5245902,3.29508197 L10.5245902,6.39344262 C10.8688525,6.59016393 11.1639344,6.93442623 11.1639344,7.37704918 C11.1639344,7.96721311 10.6721311,8.45901639 10.0819672,8.45901639 C9.49180328,8.45901639 9,7.96721311 9,7.37704918 C9,6.93442623 9.29508197,6.54098361 9.63934426,6.39344262 L9.63934426,3.3442623 L6.63934426,5.40983607 C6.63934426,7.2295082 5.16393443,8.70491803 3.3442623,8.70491803 C1.52459016,8.70491803 0.0491803279,7.2295082 0.0491803279,5.40983607 C0.0491803279,3.59016393 1.52459016,2.1147541 3.3442623,2.1147541 C4.37704918,2.1147541 5.26229508,2.55737705 5.85245902,3.29508197 L9.63934426,0.147540984 L10.5245902,0.147540984 L14.2622951,3.29508197 C14.852459,2.55737705 15.7868852,2.1147541 16.7704918,2.1147541 C18.6393443,2.16393443 20.1147541,3.63934426 20.1147541,5.40983607 Z" id="XMLID_399_"></path>
                    </g>
                </g>
            </g>
        </g>
    </g>
</svg>