<?xml version="1.0" encoding="UTF-8"?>
<svg width="30px" height="30px" viewBox="0 0 30 30" version="1.1" xmlns="http://www.w3.org/2000/svg" xmlns:xlink="http://www.w3.org/1999/xlink">
    <!-- Generator: Sketch 47 (45396) - http://www.bohemiancoding.com/sketch -->
    <title>Custom Preset Copy</title>
    <desc>Created with Sketch.</desc>
    <defs></defs>
    <g id="Page-1" stroke="none" stroke-width="1" fill="none" fill-rule="evenodd" stroke-linejoin="round">
        <g id="Custom-Preset-Copy" stroke="#000000">
            <g id="Доменное-производство" transform="translate(4.810000, 0.000000)">
                <rect id="XMLID_172_" x="0" y="10.9345794" width="20.1869159" height="11.2149533"></rect>
                <rect id="XMLID_171_" fill="#000000" fill-rule="nonzero" x="1.96261682" y="25.5140187" width="15.7009346" height="3.64485981"></rect>
                <rect id="XMLID_143_" x="1.68224299" y="29.1588785" width="16.8224299" height="1"></rect>
                <polygon id="XMLID_175_" points="20.1869159 22.1495327 18.0723646 25.5140187 2.11455125 25.5140187 0 22.1495327"></polygon>
                <polygon id="XMLID_83_" fill="#000000" fill-rule="nonzero" points="20.1869159 10.9345794 0 10.9345794 4.99732044 6.72897196 15.3025292 6.72897196"></polygon>
                <polygon id="XMLID_86_" points="15.4205607 8.69158879 4.48598131 8.69158879 5.87714918 2.24299065 14.0293929 2.24299065"></polygon>
                <rect id="XMLID_25_" fill="#000000" fill-rule="nonzero" x="5.88785047" y="0" width="1.40186916" height="2.24299065"></rect>
                <rect id="XMLID_42_" fill="#000000" fill-rule="nonzero" x="12.6168224" y="0" width="1.40186916" height="2.24299065"></rect>
            </g>
        </g>
    </g>
</svg>