<?xml version="1.0" encoding="UTF-8"?>
<svg width="30px" height="30px" viewBox="0 0 30 30" version="1.1" xmlns="http://www.w3.org/2000/svg" xmlns:xlink="http://www.w3.org/1999/xlink">
    <!-- Generator: Sketch 47 (45396) - http://www.bohemiancoding.com/sketch -->
    <title>Custom Preset Copy 4</title>
    <desc>Created with Sketch.</desc>
    <defs></defs>
    <g id="Page-1" stroke="none" stroke-width="1" fill="none" fill-rule="evenodd">
        <g id="Custom-Preset-Copy-4">
            <g id="Коксохимпроизводство" transform="translate(0.000000, 11.000000)">
                <path d="M5.16666667,2.16666667 L5.26666667,3.83333333 L6.1,3.83333333 L6.1,10.8333333 L5.7,10.8333333 L5.8,12.5 L28.5333333,12.5 L28.5333333,2.16666667 L5.16666667,2.16666667 Z M8.2,10.8333333 L7.33333333,10.8333333 L7.33333333,3.83333333 L8.2,3.83333333 L8.2,10.8333333 Z M10.3,10.8333333 L9.43333333,10.8333333 L9.43333333,3.83333333 L10.3,3.83333333 L10.3,10.8333333 Z M12.3666667,10.8333333 L11.5,10.8333333 L11.5,3.83333333 L12.3666667,3.83333333 L12.3666667,10.8333333 Z M14.4333333,10.8333333 L13.5666667,10.8333333 L13.5666667,3.83333333 L14.4333333,3.83333333 L14.4333333,10.8333333 Z M16.5,10.8333333 L15.6333333,10.8333333 L15.6333333,3.83333333 L16.5,3.83333333 L16.5,10.8333333 Z M18.6,10.8333333 L17.7333333,10.8333333 L17.7333333,3.83333333 L18.6,3.83333333 L18.6,10.8333333 Z M20.6666667,10.8333333 L19.8,10.8333333 L19.8,3.83333333 L20.6666667,3.83333333 L20.6666667,10.8333333 Z M22.7333333,10.8333333 L21.8666667,10.8333333 L21.8666667,3.83333333 L22.7333333,3.83333333 L22.7333333,10.8333333 Z M24.8,10.8333333 L23.9333333,10.8333333 L23.9333333,3.83333333 L24.8,3.83333333 L24.8,10.8333333 Z M26.9,10.8333333 L26.0333333,10.8333333 L26.0333333,3.83333333 L26.9,3.83333333 L26.9,10.8333333 Z" id="XMLID_155_" fill="#000000" fill-rule="nonzero"></path>
                <polygon id="XMLID_133_" stroke="#000000" points="29.8333333 12.5 29.8333333 16.7 6.13333333 16.7 6.1 16.2 5.9 13 5.86666667 12.5"></polygon>
                <rect id="XMLID_120_" stroke="#000000" x="0.0666666667" y="16.7" width="29.7666667" height="2.16666667"></rect>
                <polygon id="XMLID_130_" stroke="#000000" points="29.8333333 12.5 29.8333333 13.3333333 5.9 13.3333333 5.86666667 12.5"></polygon>
                <polygon id="XMLID_129_" stroke="#000000" points="29.8333333 15.8666667 29.8333333 16.7 6.13333333 16.7 6.1 15.8666667"></polygon>
                <polygon id="XMLID_138_" stroke="#000000" points="6.13333333 16.7 1.76666667 16.7 2.63333333 0.1 5.03333333 0.1 5.16666667 2.16666667 5.3 3.83333333 5.73333333 10.8333333 5.86666667 12.5 5.9 13 6.1 16.2"></polygon>
            </g>
        </g>
    </g>
</svg>