<?xml version="1.0" encoding="UTF-8"?>
<svg width="30px" height="30px" viewBox="0 0 30 30" version="1.1" xmlns="http://www.w3.org/2000/svg" xmlns:xlink="http://www.w3.org/1999/xlink">
    <!-- Generator: Sketch 47 (45396) - http://www.bohemiancoding.com/sketch -->
    <title>Custom Preset Copy 12</title>
    <desc>Created with Sketch.</desc>
    <defs></defs>
    <g id="Page-1" stroke="none" stroke-width="1" fill="none" fill-rule="evenodd">
        <g id="Custom-Preset-Copy-12" stroke="#F84807">
            <g id="Формованные-огнеупоры-для-разливки-металла" transform="translate(5.000000, 0.000000)">
                <polygon id="XMLID_107_" points="16.5176471 1.94117647 15.4588235 13.8352941 6.38823529 13.8352941 5.32941176 1.94117647"></polygon>
                <polygon id="XMLID_102_" points="11.1176471 14.5058824 10.6235294 16.2352941 8.71764706 16.2352941 8.18823529 14.5058824"></polygon>
                <rect id="XMLID_106_" x="8.68235294" y="16.2352941" width="1.94117647" height="9.67058824"></rect>
                <g id="XMLID_48_" transform="translate(7.764706, 25.764706)">
                    <polygon id="XMLID_110_" points="3.70588235 1.02352941 3.70588235 2.08235294 0.0705882353 2.08235294 0.0705882353 1.02352941 0.917647059 0.141176471 2.85882353 0.141176471"></polygon>
                </g>
                <rect id="XMLID_96_" x="0.211764706" y="28.6941176" width="18.8470588" height="1.30588235"></rect>
                <polygon id="XMLID_99_" fill="#F84807" fill-rule="nonzero" points="18.3176471 27.8470588 12.7411765 27.8470588 13.3411765 17.9294118 17.7176471 17.9294118"></polygon>
                <polygon id="XMLID_100_" fill="#F84807" fill-rule="nonzero" points="6.45882353 27.8470588 0.882352941 27.8470588 1.48235294 17.9294118 5.85882353 17.9294118"></polygon>
                <rect id="XMLID_101_" fill="#F84807" fill-rule="nonzero" x="9.31764706" y="0.211764706" width="1" height="1.72941176"></rect>
                <rect id="XMLID_103_" x="9.31764706" y="13.8352941" width="1" height="1"></rect>
                <rect id="XMLID_105_" x="9.31764706" y="27.8470588" width="1" height="1"></rect>
            </g>
        </g>
    </g>
</svg>